Place,Sex,Name,Event,Division,WeightClassKg,Equipment,Team,State,BodyweightKg,Squat1Kg,Squat2Kg,Squat3Kg,Best3SquatKg,Bench1Kg,Bench2Kg,Bench3Kg,Best3BenchKg,Deadlift1Kg,Deadlift2Kg,Deadlift3Kg,Best3DeadliftKg,TotalKg,BirthYear
1,M,Dalton LaCoe,SBD,C,53,Single-ply,LC,PA,52.4,185,195,205,205.0,120,125,127.5,127.5,227.5,242.5,250,250.0,582.5,1995
2,M,Kenneth Johnson,SBD,C,53,Single-ply,W-Park,WI,52.6,135,147.5,162.5,162.5,82.5,87.5,-95,87.5,150,170,182.5,182.5,432.5,1997
3,M,Muhammad Shahid Kamran,SBD,C,53,Single-ply,USNA,MD,52.8,130,142.5,-145,142.5,82.5,92.5,97.5,97.5,150,157.5,162.5,162.5,402.5,1995
DQ,M,Connor Gruntz,SBD,C,53,Single-ply,LA Tech,LA,52.2,-135,-135,-135,,-70,77.5,-85,77.5,130,-135,-135,130.0,,1996
1,M,Logan Grimm,SBD,C,59,Single-ply,TAMU,TX,59,232.5,-240,-240,232.5,112.5,-117.5,117.5,117.5,215,222.5,-227.5,222.5,572.5,1997
2,M,Jess Rutledge,SBD,C,59,Single-ply,UTSA,TX,59,210,-225,-225,210.0,117.5,122.5,-127.5,122.5,202.5,-210,-210,202.5,535,1994
3,M,Hector Bustillos,SBD,C,59,Single-ply,UT,TX,58.2,177.5,187.5,-197.5,187.5,105,-112.5,-112.5,105.0,200,212.5,-242.5,212.5,505,1996
4,M,Tyler Simar,SBD,C,59,Single-ply,ULL,LA,58.4,172.5,-180,-185,172.5,122.5,127.5,132.5,132.5,190,-200,-202.5,190.0,495,1996
5,M,Arnold Delgadillo,SBD,C,59,Single-ply,TAMU,TX,58.8,-172.5,172.5,-182.5,172.5,-125,125,-137.5,125.0,175,185,-190,185.0,482.5,1997
6,M,Eric Hernandez,SBD,C,59,Single-ply,TAMU,TX,57.8,155,-165,165,165.0,95,100,107.5,107.5,177.5,185,-197.5,185.0,457.5,1996
DQ,M,Mark Barbosa,SBD,C,59,Single-ply,TAMU,TX,57.4,-170,-180,-180,,110,112.5,-115,112.5,180,-190,192.5,192.5,,1996
DQ,M,Isaias Gonzalez,SBD,C,59,Single-ply,UHD,TX,58.6,-185,-185,-185,,-132.5,132.5,-152.5,132.5,192.5,207.5,-212.5,207.5,,1994
1,M,Charles Okpoko,SBD,C,66,Single-ply,UT,TX,65.8,-285,285,-300,285.0,175,182.5,185,185.0,255,-257.5,-265,255.0,725,1995
2,M,Kenny Nguyen,SBD,C,66,Single-ply,UHD,TX,65.6,230,240,-245,240.0,220,-230,-230,220.0,220,-230,-230,220.0,680,1995
3,M,Blake Ricalde,SBD,C,66,Single-ply,LSU,LA,66,220,227.5,-235,227.5,130,140,145,145.0,210,220,227.5,227.5,600,1994
4,M,Vincent Moon,SBD,C,66,Single-ply,USNA,MD,65.8,205,-210,-210,205.0,-165,165,-172.5,165.0,-192.5,195,200,200.0,570,1994
5,M,Jeffry Book,SBD,C,66,Single-ply,URI,NJ,66,195,202.5,-210,202.5,160,-170,-170,160.0,197.5,-207.5,-210,197.5,560,1994
6,M,Jacob Keesee,SBD,C,66,Single-ply,T-McC,GA,65,192.5,-205,-205,192.5,127.5,-135,135,135.0,197.5,205,-212.5,205.0,532.5,1995
7,M,Brandon Canson,SBD,C,66,Single-ply,UT,TX,65.2,-177.5,177.5,187.5,187.5,112.5,-120,-120,112.5,-215,220,227.5,227.5,527.5,1995
8,M,Quinton Gabara,SBD,C,66,Single-ply,NU,MA,65.8,195,-205,205,205.0,130,-135,-135,130.0,180,192.5,-210,192.5,527.5,1997
9,M,Edward Su,SBD,C,66,Single-ply,UT,TX,65.6,-165,165,175,175.0,117.5,125,-130,125.0,205,212.5,-217.5,212.5,512.5,1995
10,M,Michael Cheung,SBD,C,66,Single-ply,NU,MA,65,195,-205,-205,195.0,107.5,112.5,120,120.0,160,175,190,190.0,505,1994
11,M,Nick Adams,SBD,C,66,Single-ply,ULL,LA,64,167.5,170,177.5,177.5,115,122.5,-125,122.5,187.5,195,-205,195.0,495,1995
12,M,Patrick Piedad,SBD,C,66,Single-ply,VMI,VA,65.6,165,-185,190,190.0,107.5,-115,115,115.0,170,185,-195,185.0,490,1994
1,M,Blake Lehew,SBD,C,74,Single-ply,TAMU,TX,73.8,-275,275,280,280.0,200,207.5,212.5,212.5,285,300,315,315.0,807.5,1995
2,M,Angel Moreno,SBD,C,74,Single-ply,UTSA,TX,73.6,270,282.5,-290,282.5,185,192.5,195,195.0,235,245,-250,245.0,722.5,1996
3,M,Nicholas Anzlaone,SBD,C,74,Single-ply,LSU,LA,73.6,212.5,222.5,-232.5,222.5,130,140,145,145.0,212.5,225,-235,225.0,592.5,1994
4,M,Gustavo Maldonado,SBD,C,74,Single-ply,SHSU,TX,72.4,220,222.5,227.5,227.5,120,127.5,130,130.0,-227.5,227.5,230,230.0,587.5,1993
5,M,Alec DeLeon,SBD,C,74,Single-ply,UHD,TX,73.6,205,-227.5,227.5,227.5,140,147.5,152.5,152.5,207.5,-227.5,-232.5,207.5,587.5,1996
6,M,Kevin Cole,SBD,C,74,Single-ply,NU,MA,72.2,187.5,200,207.5,207.5,145,-150,150,150.0,205,217.5,222.5,222.5,580,1995
7,M,Zachary May,SBD,C,74,Single-ply,CC,IA,73.6,215,225,-227.5,225.0,-132.5,132.5,-140,132.5,207.5,222.5,-235,222.5,580,1994
8,M,Donald Baker,SBD,C,74,Single-ply,ASU,TX,73.2,205,-217.5,217.5,217.5,142.5,-155,155,155.0,205,-215,-215,205.0,577.5,1995
9,M,Connor Loskie,SBD,C,74,Single-ply,TAMU,TX,71.8,185,195,200,200.0,157.5,165,-175,165.0,192.5,202.5,-210,202.5,567.5,1994
10,M,Thomas Step,SBD,C,74,Single-ply,TAMU,OK,70.8,195,202.5,-215,202.5,105,115,127.5,127.5,207.5,217.5,227.5,227.5,557.5,1995
11,M,Colin Capparelle,SBD,C,74,Single-ply,URI,CT,73,185,190,195,195.0,140,145,147.5,147.5,185,200,215,215.0,557.5,1994
12,M,Roland Whitney,SBD,C,74,Single-ply,ULL,LA,71.8,192.5,197.5,202.5,202.5,147.5,152.5,-157.5,152.5,192.5,200,-205,200.0,555,1997
13,M,Jason Poling,SBD,C,74,Single-ply,VMI,VA,73.8,-212.5,212.5,-220,212.5,122.5,127.5,132.5,132.5,205,-212.5,-212.5,205.0,550,1995
14,M,Nicholas DeSantis,SBD,C,74,Single-ply,NU,MA,73.4,-205,205,215,215.0,105,115,-117.5,115.0,205,215,-227.5,215.0,545,1993
15,M,Michael Coppolino,SBD,C,74,Single-ply,VMI,NY,74,165,177.5,185,185.0,-105,-105,105,105.0,227.5,240,245,245.0,535,1994
16,M,Matthew Merry,SBD,C,74,Single-ply,UT,TX,69.6,165,185,-192.5,185.0,125,137.5,-150,137.5,185,,,185.0,507.5,1995
17,M,Mitch Sanchez,SBD,C,74,Single-ply,SHSU,TX,73.6,175,-185,-185,175.0,-115,115,-125,115.0,175,185,192.5,192.5,482.5,1994
DQ,M,Scott Reviere,SBD,C,74,Single-ply,ULL,LA,71,225,-230,237.5,237.5,137.5,142.5,147.5,147.5,-227.5,-227.5,-227.5,,,1996
DQ,M,Henry Hsu,SBD,C,74,Single-ply,NU,MA,72.8,242.5,250,255,255.0,-170,-170,-170,,245,260,-272.5,260.0,,1994
DQ,M,Jake Martinez,SBD,C,74,Single-ply,UTSA,TX,73,240,250,-255,250.0,160,167.5,-170,167.5,-230,-230,-230,,,1993
DQ,M,Kyle Duplantis,SBD,C,74,Single-ply,ULL,LA,73.2,180,187.5,-195,187.5,-137.5,-137.5,-137.5,,192.5,197.5,-202.5,197.5,,1996
DQ,M,Adrian Janowski,SBD,C,74,Single-ply,UT,TX,73.6,200,212.5,-222.5,212.5,135,145,-152.5,145.0,-207.5,-207.5,-207.5,,,1995
1,M,Taylor Raynard,SBD,C,83,Single-ply,UTSA,TX,82.5,307.5,-317.5,317.5,317.5,-185,185,,185.0,285,295,300,300.0,802.5,1997
2,M,Coy Jorden,SBD,C,83,Single-ply,UTSA,TX,81.5,295,-307.5,-307.5,295.0,140,190,195,195.0,280,290,-312.5,290.0,780,1996
3,M,Aaron Pomerantz,SBD,C,83,Single-ply,UT,TX,80.2,242.5,257.5,262.5,262.5,242.5,262.5,272.5,272.5,-220,220,235,235.0,770,1995
4,M,James Marcotte,SBD,C,83,Single-ply,URI,MA,82.5,-265,265,280,280.0,215,227.5,-235,227.5,235,245,-250,245.0,752.5,1991
5,M,Ian MacPherson,SBD,C,83,Single-ply,BC,MA,82.6,280,292.5,302.5,302.5,-190,190,195,195.0,235,255,-272.5,255.0,752.5,1994
6,M,Anthony White,SBD,C,83,Single-ply,USNA,MD,81.3,-255,255,265,265.0,205,215,225,225.0,237.5,252.5,-260,252.5,742.5,1992
7,M,Thomas Gottschalk,SBD,C,83,Single-ply,URI,CT,82.6,262.5,270,280,280.0,-195,195,-200,195.0,255,267.5,-275,267.5,742.5,1994
8,M,Jonathan Voltaire,SBD,C,83,Single-ply,TAMU,TX,82,267.5,275,282.5,282.5,157.5,165,172.5,172.5,280,-295,-295,280.0,735,1995
9,M,Khalid Schuler,SBD,C,83,Single-ply,UTSA,TX,82.7,277.5,-290,290,290.0,172.5,177.5,-182.5,177.5,265,-275,-275,265.0,732.5,1996
10,M,James Guillory,SBD,C,83,Single-ply,ULL,LA,81.5,247.5,252.5,-260,252.5,220,225,227.5,227.5,-240,240,-245,240.0,720,1994
11,M,Jeremiah Velasco,SBD,C,83,Single-ply,TAMU,TX,81.9,260,-267.5,270,270.0,170,175,-182.5,175.0,275,-277.5,-277.5,275.0,720,1995
12,M,Andrew Reiss,SBD,C,83,Single-ply,ULL,LA,82.2,240,250,260,260.0,207.5,215,220,220.0,235,-245,-245,235.0,715,1994
13,M,Yuuki Sato,SBD,C,83,Single-ply,NU,MA,81.6,245,255,265,265.0,170,175,182.5,182.5,240,250,-255,250.0,697.5,1994
14,M,Joseph Francisco,SBD,C,83,Single-ply,USNA,MD,82.3,255,-267.5,-272.5,255.0,160,172.5,-182.5,172.5,-250,250,267.5,267.5,695,1995
15,M,Clinton Kinley,SBD,C,83,Single-ply,LSU,LA,82,265,-270,270,270.0,182.5,-192.5,-192.5,182.5,240,-250,-250,240.0,692.5,1996
16,M,Joshua Williams,SBD,C,83,Single-ply,ASU,TX,81.6,252.5,-272.5,272.5,272.5,100,142.5,155,155.0,210,-227.5,227.5,227.5,655,1995
17,M,Joshua Bowen,SBD,C,83,Single-ply,VMI,VA,81.9,240,-257.5,-257.5,240.0,147.5,157.5,-170,157.5,232.5,242.5,-255,242.5,640,1994
18,M,Travis Theall,SBD,C,83,Single-ply,LSU,LA,81.4,220,230,247.5,247.5,140,150,-157.5,150.0,235,-247.5,-247.5,235.0,632.5,1995
19,M,John Goodyear,SBD,C,83,Single-ply,NU,NJ,81.3,202.5,207.5,217.5,217.5,157.5,165,175,175.0,210,222.5,235,235.0,627.5,1995
20,M,Adam Tuppen,SBD,C,83,Single-ply,UT,TX,81.6,215,230,-232.5,230.0,150,160,-165,160.0,215,227.5,-237.5,227.5,617.5,1994
21,M,Garrett Beard,SBD,C,83,Single-ply,USNA,MD,81.9,-202.5,202.5,215,215.0,165,-170,170,170.0,215,220,-227.5,220.0,605,1992
22,M,Diego Lozano,SBD,C,83,Single-ply,UT,TX,81.9,185,197.5,207.5,207.5,145,-152.5,152.5,152.5,230,240,-245,240.0,600,1993
23,M,Philip Bolton,SBD,C,83,Single-ply,ULL,LA,81.3,212.5,215,227.5,227.5,122.5,130,-132.5,130.0,227.5,-235,237.5,237.5,595,1995
24,M,Trent Wein,SBD,C,83,Single-ply,UT,TX,82.3,182.5,192.5,202.5,202.5,135,145,152.5,152.5,227.5,240,-250,240.0,595,1994
25,M,Joel Hunter,SBD,C,83,Single-ply,USNA,MD,81.1,-215,215,-222.5,215.0,145,155,157.5,157.5,192.5,207.5,210,210.0,582.5,1994
26,M,Kyle Brennan,SBD,C,83,Single-ply,SHSU,TX,81.8,215,225,-232.5,225.0,115,125,-135,125.0,215,-227.5,-227.5,215.0,565,1997
27,M,Brandon Canlas,SBD,C,83,Single-ply,USNA,MD,81.2,185,187.5,-202.5,187.5,145,150,152.5,152.5,210,220,-230,220.0,560,1993
28,M,Tristan Robles,SBD,C,83,Single-ply,TAMU,TX,79.1,182.5,195,200,200.0,137.5,145,-150,145.0,192.5,207.5,-210,207.5,552.5,1996
29,M,Daniel Reagan,SBD,C,83,Single-ply,URI,MA,81.4,225,-232.5,-232.5,225.0,85,-137.5,-142.5,85.0,220,230,-235,230.0,540,1994
30,M,Jamil Hinedi,SBD,C,83,Single-ply,TAMU,TX,81.5,170,185,-190,185.0,120,125,130,130.0,-190,190,200,200.0,515,1995
DQ,M,Austin Stephen,SBD,C,83,Single-ply,TAMU,TX,80.8,280,292.5,300,300.0,162.5,165,-170,165.0,-285,-290,-290,,,1995
DQ,M,James Faso,SBD,C,83,Single-ply,NU,NH,81.4,230,237.5,245,245.0,-140,-140,-140,,240,250,-265,250.0,,1992
DQ,M,Draven Collins,SBD,C,83,Single-ply,LA Tech,LA,81.7,-280,-280,-280,,175,-182.5,-182.5,175.0,215,-222.5,-222.5,215.0,,1997
DQ,M,Aaron Duran,SBD,C,83,Single-ply,UT,TX,82.2,-207.5,207.5,-212.5,207.5,-137.5,137.5,-142.5,137.5,-232.5,-232.5,-232.5,,,1996
DQ,M,Ethan Durham,SBD,C,83,Single-ply,USNA,MD,82.4,-242.5,247.5,-252.5,247.5,147.5,155,160,160.0,-235,-235,-235,,,1995
1,M,Abram Guerra,SBD,C,93,Single-ply,TAMU,TX,92.2,310,320,330,330.0,225,230,237.5,237.5,282.5,292.5,-302.5,292.5,860,1995
2,M,Michael Davis,SBD,C,93,Single-ply,UT,TX,92.6,305,320,-327.5,320.0,200,210,215,215.0,310,320,-327.5,320.0,855,1995
3,M,Ashton Rouska,SBD,C,93,Single-ply,UTSA,TX,85,-312.5,312.5,-317.5,312.5,205,-210,-210,205.0,300,310,-342.5,310.0,827.5,1997
4,M,Curtis Allen,SBD,C,93,Single-ply,USNA,MD,92.2,290,-305,-305,290.0,225,230,-235,230.0,280,287.5,295,295.0,815,1992
5,M,Thomas Reilly,SBD,C,93,Single-ply,NU,NH,91.6,-300,305,315,315.0,190,197.5,-205,197.5,-260,260,-295,260.0,772.5,1992
6,M,Alexander Harbeson,SBD,C,93,Single-ply,USNA,MD,92.4,267.5,-275,-280,267.5,182.5,195,207.5,207.5,260,270,-277.5,270.0,745,1992
7,M,Carter Burn,SBD,C,93,Single-ply,USNA,MD,91.6,235,245,252.5,252.5,152.5,165,-172.5,165.0,270,282.5,-292.5,282.5,700,1996
8,M,David Apotheker,SBD,C,93,Single-ply,BU,MA,88.8,235,245,-255,245.0,162.5,170,-182.5,170.0,262.5,275,282.5,282.5,697.5,1993
9,M,Raymond Chow,SBD,C,93,Single-ply,USNA,MD,91.6,240,-245,-245,240.0,197.5,-210,-210,197.5,245,255,-262.5,255.0,692.5,1994
10,M,Seth Watlington,SBD,C,93,Single-ply,USNA,MD,90.8,237.5,-247.5,-252.5,237.5,152.5,160,170,170.0,252.5,262.5,-275,262.5,670,1994
11,M,Tyler Logan,SBD,C,93,Single-ply,TAMU,TX,92.6,227.5,235,255,255.0,152.5,157.5,-172.5,157.5,252.5,-265,-272.5,252.5,665,1996
12,M,Chris Broussard,SBD,C,93,Single-ply,ULL,LA,90.6,-227.5,230,242.5,242.5,145,152.5,160,160.0,245,250,260,260.0,662.5,1996
13,M,Tevin Guillot,SBD,C,93,Single-ply,ULL,LA,92.2,227.5,-235,-240,227.5,150,155,162.5,162.5,230,245,252.5,252.5,642.5,1993
14,M,Alex Gordon,SBD,C,93,Single-ply,TAMU,TX,92.5,217.5,-222.5,-227.5,217.5,-157.5,157.5,-182.5,157.5,247.5,-267.5,267.5,267.5,642.5,1995
15,M,Benjamin Hogin,SBD,C,93,Single-ply,USNA,MD,91.6,215,225,-232.5,225.0,165,-175,175,175.0,225,240,-250,240.0,640,1996
16,M,Nick McCauley,SBD,C,93,Single-ply,NU,MA,84.4,-230,-230,240,240.0,130,137.5,145,145.0,-210,225,232.5,232.5,617.5,1995
17,M,Patrick Morgan,SBD,C,93,Single-ply,URI,MA,91,225,237.5,-242.5,237.5,-115,-115,115,115.0,235,247.5,-257.5,247.5,600,1994
18,M,Brandon Noble,SBD,C,93,Single-ply,LSU,LA,91,207.5,212.5,217.5,217.5,150,155,162.5,162.5,200,212.5,220,220.0,600,1995
19,M,Kyle Meurer,SBD,C,93,Single-ply,TAMU,TX,90.8,207.5,220,-230,220.0,125,137.5,-145,137.5,210,222.5,232.5,232.5,590,1996
20,M,Trevor Nathan,SBD,C,93,Single-ply,NU,NY,90.8,212.5,222.5,227.5,227.5,110,117.5,122.5,122.5,205,215,230,230.0,580,1994
21,M,Bryson Chanson,SBD,C,93,Single-ply,ULL,LA,92,202.5,210,220,220.0,127.5,-132.5,132.5,132.5,215,220,227.5,227.5,580,1995
22,M,Farhan Siddiqui,SBD,C,93,Single-ply,TAMU,TX,90.8,-205,205,217.5,217.5,110,115,117.5,117.5,235,-255,-255,235.0,570,1993
23,M,Zach Stout,SBD,C,93,Single-ply,ULL,LA,91,210,217.5,222.5,222.5,125,130,-135,130.0,207.5,215,-225,215.0,567.5,1995
24,M,Evan Foster,SBD,C,93,Single-ply,LSU,LA,92.8,242.5,-255,-255,242.5,85,,,85.0,217.5,225,-230,225.0,552.5,1996
DQ,M,Jordan Glenn,SBD,C,93,Single-ply,SHSU,TX,90.8,282.5,292.5,-297.5,292.5,-220,-220,-220,,,,,,,1993
DQ,M,Eric Johnson,SBD,C,93,Single-ply,VMI,VA,91,-297.5,-307.5,-325,,-197.5,,,,,,,,,1996
DQ,M,Leonidas Brooks,SBD,C,93,Single-ply,LA Tech,TX,92,-290,-295,-295,,-210,,,,,,,,,1995
DQ,M,August Woodruff,SBD,C,93,Single-ply,TAMU,TX,92.2,275,290,305,305.0,195,205,210,210.0,-252.5,-252.5,-252.5,,,1996
1,M,Mitchell Fountain,SBD,C,105,Single-ply,LSU,LA,103.6,335,355,-365,355.0,207.5,215,-227.5,215.0,317.5,337.5,-350.5,337.5,907.5,1995
2,M,Trey Ryder,SBD,C,105,Single-ply,ULL,LA,102.6,260,272.5,282.5,282.5,-202.5,202.5,210,210.0,260,275,-280,275.0,767.5,1996
3,M,Christian Baldoni,SBD,C,105,Single-ply,PSU,PA,93.7,-302.5,302.5,-312.5,302.5,192.5,197.5,-205,197.5,235,250,265,265.0,765,1993
4,M,Caleb Lamberth,SBD,C,105,Single-ply,UTSA,TX,101.4,292.5,300,-305,300.0,175,-185,-185,175.0,260,270,-292.5,270.0,745,1996
5,M,Logan Herrington,SBD,C,105,Single-ply,SHSU,TX,101.8,237.5,247.5,255,255.0,155,165,175,175.0,272.5,285,295,295.0,725,1994
6,M,Wesley Knox,SBD,C,105,Single-ply,NU,MA,103.6,260,267.5,272.5,272.5,175,182.5,-190,182.5,225,237.5,245,245.0,700,1995
7,M,Shawn Gardner,SBD,C,105,Single-ply,VMI,VA,102.5,257.5,-272.5,-272.5,257.5,167.5,-177.5,177.5,177.5,247.5,260,-267.5,260.0,695,1994
8,M,Jonathan Lwowski,SBD,C,105,Single-ply,UTSA,TX,95.1,245,255,-260,255.0,155,-160,160,160.0,270,277.5,-285,277.5,692.5,1994
9,M,Joseph Frengel,SBD,C,105,Single-ply,TEMP,TX,94,-240,240,-260,240.0,-165,165,-170,165.0,-240,240,-250,240.0,645,1997
10,M,Wyatt Fagan,SBD,C,105,Single-ply,VMI,VA,103.2,220,235,242.5,242.5,130,-137.5,-137.5,130.0,265,-272.5,-272.5,265.0,637.5,1994
11,M,John Bradshaw,SBD,C,105,Single-ply,PSU,PA,103.7,-240,-240,240,240.0,130,137.5,-145,137.5,-245,245,-257.5,245.0,622.5,1995
12,M,Kaleb Murray,SBD,C,105,Single-ply,ULL,LA,100.1,202.5,212.5,222.5,222.5,137.5,142.5,147.5,147.5,227.5,235,-237.5,235.0,605,1995
13,M,Josh Miller,SBD,C,105,Single-ply,SHSU,TX,104.7,215,-222.5,222.5,222.5,127.5,-222.5,,127.5,220,-225,-225,220.0,570,1995
DQ,M,Grant Senft,SBD,C,105,Single-ply,PSU,PA,103.7,-257.5,257.5,-262.5,257.5,-147.5,147.5,-152.5,147.5,-235,-235,-235,,,1995
DQ,M,Joseph Thibodaux,SBD,C,105,Single-ply,LA Tech,LA,103.7,-315,-315,320,320.0,-192.5,-195,-195,,245,255,265,265.0,,1997
1,M,Jesse Burttschell,SBD,C,120,Single-ply,TAMU,TX,119.2,340,355,365,365.0,265,275,282.5,282.5,307.5,320,327.5,327.5,975,1993
2,M,Chris Hughes,SBD,C,120,Single-ply,NU,MA,117.2,365,382.5,-390,382.5,212.5,222.5,-227.5,222.5,280,-300,-300,280.0,885,1993
3,M,Faithful Alabi,SBD,C,120,Single-ply,UTSA,TX,116.6,332.5,-345,345,345.0,-197.5,197.5,200,200.0,307.5,312.5,-340,312.5,857.5,1995
4,M,Matt Sohmer,SBD,C,120,Single-ply,SUNY,NY,116.2,345,365,-377.5,365.0,130,135,140,140.0,322.5,342.5,350,350.0,855,1993
5,M,Matt Hughes,SBD,C,120,Single-ply,NU,NH,110.9,325,-340,-340,325.0,200,-210,-210,200.0,295,-305,-307.5,295.0,820,1993
6,M,Dakotta Cooksy,SBD,C,120,Single-ply,SHSU,TX,109.7,287.5,295,317.5,317.5,187.5,195,202.5,202.5,275,287.5,-310,287.5,807.5,1995
7,M,David Verzwyvelt,SBD,C,120,Single-ply,LA Tech,LA,115.1,295,305,315,315.0,180,185,192.5,192.5,245,260,272.5,272.5,780,1996
8,M,Nathaniel Flores,SBD,C,120,Single-ply,SHSU,TX,111.4,255,262.5,280,280.0,175,187.5,192.5,192.5,232.5,242.5,252.5,252.5,725,1996
9,M,Connor Qualls,SBD,C,120,Single-ply,TAMU,TX,109.6,245,255,262.5,262.5,175,185,192.5,192.5,225,237.5,242.5,242.5,697.5,1995
10,M,Eric Jacques,SBD,C,120,Single-ply,NU,MA,109.2,245,252.5,257.5,257.5,160,-165,-165,160.0,-260,260,-285,260.0,677.5,1994
11,M,Peter Hoang,SBD,C,120,Single-ply,TAMU,TX,118.8,-247.5,247.5,265,265.0,165,175,182.5,182.5,215,225,-242.5,225.0,672.5,1993
12,M,Greg Ormiston,SBD,C,120,Single-ply,TAMU,TX,117.4,240,247.5,255,255.0,155,162.5,165,165.0,215,222.5,-250,222.5,642.5,1993
13,M,Malcolm Pringle,SBD,C,120,Single-ply,SHSU,TX,111.1,-215,215,227.5,227.5,147.5,157.5,167.5,167.5,215,227.5,240,240.0,635,1996
14,M,Isaac Valera,SBD,C,120,Single-ply,SHSU,TX,117.4,205,210,225,225.0,142.5,152.5,162.5,162.5,225,237.5,245,245.0,632.5,1993
DQ,M,Erik Golabek,SBD,C,120,Single-ply,PSU,PA,116.3,302.5,-315,317.5,317.5,-220,-227.5,-227.5,,232.5,252.5,-260,252.5,,1993
1,M,Tim Johnson,SBD,C,120+,Single-ply,LSU,LA,136.1,355,-365,365,365.0,230,-237.5,-237.5,230.0,325,-343.5,-343.5,325.0,920,1993
2,M,Donald Treglia,SBD,C,120+,Single-ply,LA Tech,LA,137.8,310,,,310.0,180,-237.5,-237.5,180.0,260,272.5,302.5,302.5,792.5,1996
3,M,Tyler Bergeron,SBD,C,120+,Single-ply,ULL,LA,160.3,277.5,287.5,-300,287.5,-197.5,197.5,205,205.0,242.5,250,-257.5,250.0,742.5,1993
4,M,Bronson Burks,SBD,C,120+,Single-ply,ASU,TX,133,290,305,-320,305.0,130,142.5,-145,142.5,265,280,292.5,292.5,740,1997
5,M,John Dumas,SBD,C,120+,Single-ply,ULL,LA,120.8,272.5,285,300,300.0,172.5,180,187.5,187.5,225,232.5,240,240.0,727.5,1991
6,M,Zachary Neuschaefer,SBD,C,120+,Single-ply,NU,MA,128.6,255,270,280,280.0,177.5,190,-200,190.0,210,225,-257.5,225.0,695,1992
7,M,Jose Alaniz,SBD,C,120+,Single-ply,SHSU,TX,137,225,232.5,240,240.0,152.5,170,182.5,182.5,205,212.5,220,220.0,642.5,1993
1,M,Brandon Sullivan,SBD,R-C,53,Raw,PSU,PA,53,117.5,130,140,140.0,60,67.5,75,75.0,102.5,115,127.5,127.5,342.5,1996
1,M,Khemarintr Suwanchote,SBD,R-C,59,Raw,UW-Tac,WA,58.4,100,125,,125.0,110,112.5,117.5,117.5,142.5,187.5,-200,187.5,430,1993
2,M,Roman Fronzaglia,SBD,R-C,59,Raw,FIU,FL,58.6,115,122.5,-135,122.5,90,97.5,100,100.0,172.5,182.5,-192.5,182.5,405,1995
3,M,Patrick Shamma,SBD,R-C,59,Raw,LSU,LA,58.8,112.5,122.5,130,130.0,-72.5,-77.5,77.5,77.5,152.5,165,170,170.0,377.5,1995
1,M,Alex McQuillen,SBD,R-C,66,Raw,OSU,OH,66,200,207.5,-212.5,207.5,117.5,120,122.5,122.5,215,222.5,-227.5,222.5,552.5,1995
2,M,Noel Tuvera,SBD,R-C,66,Raw,RUT,NJ,64.2,175,185,192.5,192.5,115,122.5,-127.5,122.5,195,215,-227.5,215.0,530,1996
3,M,Dallas Bey,SBD,R-C,66,Raw,RUT,NJ,65.2,170,180,-185,180.0,137.5,-145,-145,137.5,182.5,192.5,-205,192.5,510,1995
4,M,Ben Winder,SBD,R-C,66,Raw,FCGU,FL,66,155,170,175,175.0,122.5,-132.5,-132.5,122.5,185,195,-210,195.0,492.5,1995
5,M,Kevin Lam,SBD,R-C,66,Raw,OSU,OH,63.1,137.5,-145,145,145.0,117.5,122.5,-127.5,122.5,182.5,187.5,195,195.0,462.5,1999
6,M,Promepetch Suwanchote,SBD,R-C,66,Raw,UW-Tac,WA,64.2,137.5,147.5,-157.5,147.5,-95,95,100,100.0,182.5,190,197.5,197.5,445,1994
7,M,Jake Lopez,SBD,R-C,66,Raw,FIU,FL,63.9,142.5,155,162.5,162.5,82.5,92.5,-95,92.5,175,187.5,-205,187.5,442.5,1991
8,M,Tyler Coleman,SBD,R-C,66,Raw,OSU,OH,63.5,147.5,155,157.5,157.5,92.5,95,97.5,97.5,165,170,-175,170.0,425,1997
9,M,Taylor Yohe,SBD,R-C,66,Raw,USNA,MD,65.2,137.5,145,152.5,152.5,92.5,97.5,-102.5,97.5,152.5,160,172.5,172.5,422.5,1995
10,M,Richard Lisi,SBD,R-C,66,Raw,URI,RI,65,130,140,-147.5,140.0,105,110,-112.5,110.0,-155,157.5,165,165.0,415,1996
11,M,Carlos Velasquez,SBD,R-C,66,Raw,FIU,FL,62.8,120,137.5,147.5,147.5,90,-102.5,-102.5,90.0,155,165,175,175.0,412.5,1993
12,M,Cameron Ysidron,SBD,R-C,66,Raw,LSU,LA,65.8,-142.5,142.5,-152.5,142.5,85,-90,90,90.0,175,-180,180,180.0,412.5,1996
13,M,Gustavo Gonzalez,SBD,R-C,66,Raw,UW-Tac,WA,64.8,130,137.5,-140,137.5,87.5,90,-92.5,90.0,-175,182.5,-187.5,182.5,410,1995
14,M,Jake Zerner,SBD,R-C,66,Raw,UDel,NY,64.4,120,130,137.5,137.5,70,75,-80,75.0,165,180,187.5,187.5,400,1996
15,M,Yen Le,SBD,R-C,66,Raw,UW-Tac,WA,65.6,132.5,137.5,142.5,142.5,82.5,85,-87.5,85.0,152.5,160,170,170.0,397.5,1995
16,M,Louis Levine,SBD,R-C,66,Raw,UMD,MD,62.5,130,140,147.5,147.5,72.5,77.5,82.5,82.5,142.5,157.5,-167.5,157.5,387.5,1994
17,M,Coleman Moody,SBD,R-C,66,Raw,USNA,MD,65.1,125,135,-140,135.0,75,80,-82.5,80.0,165,172.5,-180,172.5,387.5,1997
DQ,M,Matthew Alvarez,SBD,R-C,66,Raw,UW-Tac,WA,64.4,-132.5,-142.5,-142.5,,90,92.5,-95,92.5,175,-182.5,182.5,182.5,,1994
DQ,M,William T. Armstrong,SBD,R-C,66,Raw,FCGU,FL,65.9,142.5,-150,-150,142.5,-112.5,-117.5,-117.5,,157.5,162.5,-182.5,162.5,,1996
1,M,Peter Hoang,SBD,R-C,74,Raw,RUT,NJ,73.7,207.5,217.5,-225,217.5,-167.5,167.5,-175,167.5,260,275,-282.5,275.0,660,1993
2,M,Andrew Sandoval,SBD,R-C,74,Raw,UTSA,TX,71.8,190,205,-212.5,205.0,142.5,150,-155,150.0,230,237.5,247.5,247.5,602.5,1992
3,M,Kyle Coogan,SBD,R-C,74,Raw,Fram,MA,72.4,182.5,-200,200,200.0,115,122.5,-132.5,122.5,250,267.5,-277.5,267.5,590,1994
4,M,Thomas Evans,SBD,R-C,74,Raw,USMA,NY,73.8,182.5,195,-207.5,195.0,117.5,122.5,125,125.0,230,245,262.5,262.5,582.5,1991
5,M,Vincent Nguyen,SBD,R-C,74,Raw,UDel,DE,73,195,-205,215,215.0,122.5,130,135,135.0,215,230,-245,230.0,580,1994
6,M,Austin Martin,SBD,R-C,74,Raw,USMA,NY,73.6,175,187.5,197.5,197.5,122.5,132.5,135,135.0,225,240,-245,240.0,572.5,
7,M,Lee Maccarone,SBD,R-C,74,Raw,Pitt,NY,74,192.5,202.5,-205,202.5,130,137.5,142.5,142.5,225,-240,-240,225.0,570,1994
8,M,Josh Davis,SBD,R-C,74,Raw,OSU,OH,72.6,187.5,200,207.5,207.5,125,-130,130,130.0,-220,220,230,230.0,567.5,1996
9,M,James Landry,SBD,R-C,74,Raw,FSU,FL,73.8,192.5,205,-210,205.0,115,122.5,130,130.0,220,232.5,-240,232.5,567.5,1992
10,M,Ryan Sanchez,SBD,R-C,74,Raw,UTSA,TX,72.6,207.5,215,-222.5,215.0,112.5,-120,-120,112.5,227.5,237.5,-252.5,237.5,565,1996
11,M,Martin Brenner,SBD,R-C,74,Raw,UCLA,CA,72.6,180,190,-195,190.0,107.5,115,120,120.0,217.5,230,240,240.0,550,1995
12,M,Fabien Ho Ching Ma,SBD,R-C,74,Raw,Brown,RI,74,165,180,185,185.0,115,-125,-125,115.0,210,227.5,237.5,237.5,537.5,1995
13,M,Armando Rivera,SBD,R-C,74,Raw,UH,TX,72.6,177.5,182.5,187.5,187.5,122.5,130,135,135.0,190,200,-210,200.0,522.5,1992
14,M,Charlie Shen de Leon,SBD,R-C,74,Raw,URI,RI,73.8,167.5,180,185,185.0,-97.5,-100,100,100.0,220,235,-242.5,235.0,520,1990
15,M,James Wang,SBD,R-C,74,Raw,UCLA,CA,71.6,182.5,195,200,200.0,90,95,97.5,97.5,192.5,-215,215,215.0,512.5,1990
16,M,Joshua Sampsell,SBD,R-C,74,Raw,PSU,PA,73.4,167.5,177.5,187.5,187.5,107.5,115,-120,115.0,192.5,202.5,-210,202.5,505,1993
17,M,Alex Orozco,SBD,R-C,74,Raw,UW-Tac,WA,73.8,175,187.5,-202.5,187.5,-112.5,117.5,-127.5,117.5,200,-215,-215,200.0,505,1992
18,M,Mark Blum,SBD,R-C,74,Raw,OSU,OH,73.1,157.5,170,172.5,172.5,90,95,100,100.0,207.5,222.5,230,230.0,502.5,1995
19,M,Jory Heath,SBD,R-C,74,Raw,USMA,NY,73.2,165,-172.5,-172.5,165.0,125,130,132.5,132.5,205,-210,-210,205.0,502.5,1993
20,M,Nico Tan,SBD,R-C,74,Raw,USMA,NY,73,160,-170,170,170.0,110,112.5,-117.5,112.5,205,-212.5,212.5,212.5,495,1992
21,M,Anthony DiBlasi,SBD,R-C,74,Raw,UMD,MD,73.6,157.5,165,175,175.0,115,120,-125,120.0,182.5,197.5,200,200.0,495,
22,M,Aded Yako,SBD,R-C,74,Raw,Prin,NJ,70.4,142.5,157.5,167.5,167.5,102.5,112.5,120,120.0,185,205,-215,205.0,492.5,1994
23,M,Jeremy Rodriguez,SBD,R-C,74,Raw,RUT,NJ,72.4,157.5,165,170,170.0,87.5,-95,95,95.0,200,215,227.5,227.5,492.5,1996
24,M,Adrian Janowski,SBD,R-C,74,Raw,UT,TX,72.8,155,167.5,-172.5,167.5,112.5,117.5,-120,117.5,187.5,200,-210,200.0,485,1995
25,M,Christopher Natividad,SBD,R-C,74,Raw,RUT,NJ,73.6,162.5,170,-175,170.0,110,117.5,-120,117.5,172.5,182.5,192.5,192.5,480,1994
26,M,Brian Yang,SBD,R-C,74,Raw,Brown,RI,74,155,167.5,-175,167.5,117.5,122.5,-127.5,122.5,177.5,190,-200,190.0,480,1996
27,M,Robert Vidal,SBD,R-C,74,Raw,UH,TX,72.8,160,165,-172.5,165.0,105,110,115,115.0,170,180,190,190.0,470,1996
28,M,Ryan O'Connell,SBD,R-C,74,Raw,USMA,NY,72.2,145,152.5,157.5,157.5,120,-130,-130,120.0,185,190,-195,190.0,467.5,1997
29,M,Robert Bello,SBD,R-C,74,Raw,FIU,FL,70.6,165,175,-182.5,175.0,110,-117.5,117.5,117.5,172.5,-185,-185,172.5,465,1994
30,M,Jakob Herlitz,SBD,R-C,74,Raw,UMass,MA,74,150,162.5,170,170.0,-97.5,97.5,-105,97.5,165,177.5,187.5,187.5,455,1997
31,M,Andrew Koelln,SBD,R-C,74,Raw,OSU,PA,71.9,130,137.5,-145,137.5,97.5,102.5,105,105.0,185,195,205,205.0,447.5,1996
32,M,Andrew Tabedzki,SBD,R-C,74,Raw,RUT,NJ,72.6,132.5,142.5,150,150.0,90,100,-102.5,100.0,162.5,-172.5,-172.5,162.5,412.5,1997
33,M,Alex Perhac,SBD,R-C,74,Raw,OSU,OH,73.5,125,132.5,-142.5,132.5,82.5,87.5,-92.5,87.5,170,182.5,-187.5,182.5,402.5,1991
1,M,Marcus Bell,SBD,R-C,83,Raw,UMD,MD,81.4,227.5,245,255,255.0,142.5,152.5,155,155.0,227.5,250,-262.5,250.0,660,1995
2,M,Stephen Canovali,SBD,R-C,83,Raw,Pitt,PA,81.2,-220,220,-232.5,220.0,135,140,-145,140.0,252.5,260,-272.5,260.0,620,1995
3,M,Josh Enmark,SBD,R-C,83,Raw,OSU,OH,81.2,195,205,210,210.0,165,172.5,175,175.0,215,227.5,232.5,232.5,617.5,1991
4,M,Alexander Guendel,SBD,R-C,83,Raw,EVaMed,VA,81.9,200,215,227.5,227.5,130,145,-150,145.0,215,232.5,245,245.0,617.5,1990
5,M,James Haworth,SBD,R-C,83,Raw,USMA,NY,81.4,195,210,220,220.0,120,127.5,135,135.0,235,247.5,260,260.0,615,1995
6,M,Brian Evans,SBD,R-C,83,Raw,OSU,OH,82.8,182.5,197.5,-210,197.5,132.5,140,-142.5,140.0,252.5,265,275,275.0,612.5,1989
7,M,John P. Torres,SBD,R-C,83,Raw,FIU,FL,80.9,192.5,205,217.5,217.5,-137.5,142.5,-155,142.5,210,222.5,240,240.0,600,1992
8,M,Ruslan Bilyalov,SBD,R-C,83,Raw,LSU,LA,81.8,182.5,192.5,205,205.0,135,145,150,150.0,230,240,-250,240.0,595,1994
9,M,Andrew Labutka,SBD,R-C,83,Raw,Pitt,PA,80.8,210,225,-237.5,225.0,117.5,127.5,-135,127.5,220,235,-245,235.0,587.5,1995
10,M,Dominic Russo,SBD,R-C,83,Raw,LSU,LA,82.4,210,215,222.5,222.5,130,137.5,-147.5,137.5,212.5,225,-235,225.0,585,1994
11,M,Michael DiBlasi,SBD,R-C,83,Raw,UMD,MD,80.8,182.5,192.5,205,205.0,127.5,130,137.5,137.5,205,222.5,240,240.0,582.5,1993
12,M,Andrew Richard,SBD,R-C,83,Raw,UMass,MA,81.9,205,-215,215,215.0,112.5,120,-127.5,120.0,212.5,227.5,235,235.0,570,1996
13,M,Tony Mathews,SBD,R-C,83,Raw,IU,IN,79.3,197.5,210,-212.5,210.0,132.5,137.5,142.5,142.5,195,212.5,-225,212.5,565,1995
14,M,Henry Meng,SBD,R-C,83,Raw,Prin,NJ,79.6,182.5,192.5,200,200.0,120,130,137.5,137.5,215,225,-230,225.0,562.5,1994
15,M,Dawit Girma,SBD,R-C,83,Raw,UMD,MD,78.8,177.5,187.5,195,195.0,127.5,132.5,135,135.0,215,227.5,-240,227.5,557.5,1994
16,M,Henry Bolo,SBD,R-C,83,Raw,BC,MA,82.2,172.5,185,192.5,192.5,107.5,-112.5,112.5,112.5,217.5,232.5,242.5,242.5,547.5,1993
17,M,Daniel Mefford,SBD,R-C,83,Raw,OSU,OH,81.4,192.5,200,-205,200.0,120,125,-127.5,125.0,207.5,217.5,-230,217.5,542.5,1993
18,M,Omotoyosi Oyedeji,SBD,R-C,83,Raw,USMA,NY,81.6,165,175,185,185.0,122.5,130,-137.5,130.0,197.5,210,225,225.0,540,1995
19,M,Michael Greenplate,SBD,R-C,83,Raw,UDel,DE,79.8,187.5,197.5,-202.5,197.5,110,117.5,-122.5,117.5,210,220,-230,220.0,535,1995
20,M,Kyle Plavcan,SBD,R-C,83,Raw,FCGU,FL,80.6,160,175,182.5,182.5,117.5,130,-135,130.0,205,-220,220,220.0,532.5,1995
21,M,Matthew LaButti,SBD,R-C,83,Raw,URI,RI,81.2,170,182.5,195,195.0,107.5,112.5,-117.5,112.5,205,222.5,-235,222.5,530,1994
22,M,Israel Nunez-Santiago,SBD,R-C,83,Raw,GIT,GA,81.2,165,175,-180,175.0,107.5,115,120,120.0,220,232.5,-245,232.5,527.5,1992
23,M,Dominic Glasson,SBD,R-C,83,Raw,UMass,MA,78.6,182.5,197.5,202.5,202.5,-112.5,117.5,125,125.0,-195,-195,195,195.0,522.5,1997
24,M,Samuel Kopech,SBD,R-C,83,Raw,URI,RI,81.5,182.5,-192.5,-192.5,182.5,120,125,-130,125.0,215,-227.5,-232.5,215.0,522.5,1996
25,M,Baxter Alves,SBD,R-C,83,Raw,URI,RI,81.9,160,172.5,182.5,182.5,115,122.5,-125,122.5,200,215,-227.5,215.0,520,1996
26,M,Arnez Rodriguez,SBD,R-C,83,Raw,UDel,NJ,81.1,160,167.5,175,175.0,120,127.5,-132.5,127.5,195,205,-220,205.0,507.5,1997
27,M,Eli Carlson,SBD,R-C,83,Raw,USNA,MD,79.9,157.5,165,177.5,177.5,110,-117.5,122.5,122.5,192.5,205,-212.5,205.0,505,1996
28,M,Devin Lin,SBD,R-C,83,Raw,DART,NH,79.3,162.5,172.5,-180,172.5,102.5,107.5,112.5,112.5,192.5,205,215,215.0,500,1994
29,M,Denny Tran,SBD,R-C,83,Raw,UMass,MA,78.6,155,167.5,-177.5,167.5,97.5,105,110,110.0,192.5,205,217.5,217.5,495,1996
30,M,Timothy Logan Thibodeaux,SBD,R-C,83,Raw,LSU,TX,78.4,145,152.5,-160,152.5,102.5,112.5,117.5,117.5,195,207.5,220,220.0,490,1997
31,M,Patrick Emmett,SBD,R-C,83,Raw,Pitt,PA,81.4,170,-182.5,-185,170.0,112.5,117.5,-120,117.5,177.5,190,200,200.0,487.5,1993
32,M,Zach Rollins,SBD,R-C,83,Raw,URI,RI,80.8,170,-190,-190,170.0,97.5,102.5,-107.5,102.5,-180,190,195,195.0,467.5,1997
33,M,Andre Chen,SBD,R-C,83,Raw,DART,NH,80.5,-155,155,165,165.0,95,97.5,,97.5,182.5,192.5,-202.5,192.5,455,1994
34,M,Samuel Hagen,SBD,R-C,83,Raw,Harvard,MA,80.2,150,160,-170,160.0,102.5,110,-120,110.0,-160,170,180,180.0,450,1996
35,M,Alan Hsieh,SBD,R-C,83,Raw,BU,MA,80.9,145,157.5,162.5,162.5,90,95,97.5,97.5,165,185,187.5,187.5,447.5,1993
36,M,Jonathan Galinsky,SBD,R-C,83,Raw,UMass,MA,81.4,137.5,147.5,155,155.0,90,97.5,102.5,102.5,-165,-182.5,182.5,182.5,440,1997
37,M,Sincere Banks,SBD,R-C,83,Raw,FCGU,FL,81,127.5,135,145,145.0,87.5,-95,-95,87.5,180,-195,195,195.0,427.5,1969
DQ,M,Jon Chambers,SBD,R-C,83,Raw,USMA,NY,81.7,202.5,-215,215,215.0,-137.5,-137.5,-137.5,,220,230,-235,230.0,,1995
1,M,Sean Moser,SBD,R-C,93,Raw,OSU,OH,91.6,237.5,247.5,255,255.0,172.5,180,182.5,182.5,272.5,285,-295,285.0,722.5,1993
2,M,Christian Baldoni,SBD,R-C,93,Raw,PSU,PA,92.2,232.5,245,255,255.0,147.5,157.5,167.5,167.5,232.5,247.5,262.5,262.5,685,1993
3,M,Vincent Victorero,SBD,R-C,93,Raw,FIU,FL,90.2,227.5,242.5,-245,242.5,167.5,-177.5,-177.5,167.5,247.5,257.5,265,265.0,675,1993
4,M,Josh Brice,SBD,R-C,93,Raw,LA Tech,LA,90,220,230,235,235.0,150,157.5,162.5,162.5,225,250,272.5,272.5,670,1995
5,M,Clay Barone,SBD,R-C,93,Raw,USMA,NY,91.6,205,215,220,220.0,147.5,157.5,165,165.0,255,275,285,285.0,670,1992
6,M,Nic Steffl,SBD,R-C,93,Raw,UNL,NE,92.2,225,237.5,245,245.0,130,137.5,-142.5,137.5,247.5,272.5,285,285.0,667.5,1994
7,M,Carlos Lucio,SBD,R-C,93,Raw,SHSU,TX,92.8,247.5,-257.5,-257.5,247.5,157.5,165,-172.5,165.0,222.5,232.5,245,245.0,657.5,1995
8,M,Christian Matos,SBD,R-C,93,Raw,SUNY,NY,91.8,207.5,215,227.5,227.5,137.5,145,-147.5,145.0,260,265,-270,265.0,637.5,1994
9,M,Christopher Serrao,SBD,R-C,93,Raw,Pitt,PA,92.2,222.5,232.5,-237.5,232.5,135,142.5,-147.5,142.5,260,-267.5,-267.5,260.0,635,1995
10,M,Jackson Jennings,SBD,R-C,93,Raw,MCKU,IL,91.6,-220,222.5,232.5,232.5,150,160,165,165.0,210,225,235,235.0,632.5,1995
11,M,Storm Mohn,SBD,R-C,93,Raw,OSU,OH,91.4,225,232.5,235,235.0,140,147.5,157.5,157.5,225,237.5,-242.5,237.5,630,1995
12,M,Gage Bush,SBD,R-C,93,Raw,VSU,GA,91.6,212.5,-222.5,222.5,222.5,155,162.5,165,165.0,235,-247.5,-247.5,235.0,622.5,1995
13,M,Joe Merli,SBD,R-C,93,Raw,PSU,PA,86.4,200,210,220,220.0,150,157.5,160,160.0,220,230,240,240.0,620,1993
14,M,Cody Green,SBD,R-C,93,Raw,LA Tech,LA,89.7,200,-215,-215,200.0,145,150,160,160.0,245,260,-272.5,260.0,620,1997
15,M,Dimitri Gianacakes,SBD,R-C,93,Raw,UK,KY,91.6,225,235,-242.5,235.0,135,-140,-140,135.0,227.5,240,250,250.0,620,1993
16,M,Alex Vignone,SBD,R-C,93,Raw,PSU,PA,90.8,222.5,-237.5,-237.5,222.5,130,135,140,140.0,232.5,245,255,255.0,617.5,1994
17,M,Christian Johnston,SBD,R-C,93,Raw,USNA,MD,87.8,-200,200,212.5,212.5,140,147.5,152.5,152.5,235,242.5,247.5,247.5,612.5,1993
18,M,Justin Ainsworth,SBD,R-C,93,Raw,LA Tech,LA,89.8,215,235,240,240.0,140,150,-157.5,150.0,220,-250,-252.5,220.0,610,1996
19,M,Austen Deppe,SBD,R-C,93,Raw,USMA,NY,91.4,215,225,-235,225.0,152.5,-165,-165,152.5,-225,225,232.5,232.5,610,1993
20,M,Thomas Keogh,SBD,R-C,93,Raw,PSU,NY,84,192.5,202.5,-210,202.5,140,147.5,-152.5,147.5,237.5,250,255,255.0,605,1994
21,M,David Kushner,SBD,R-C,93,Raw,TEMP,PA,87.8,190,215,220,220.0,130,142.5,-147.5,142.5,207.5,235,237.5,237.5,600,1996
22,M,Austin Mauldin,SBD,R-C,93,Raw,LSU,LA,89,202.5,210,217.5,217.5,110,115,-120,115.0,227.5,245,265,265.0,597.5,1996
23,M,Kelvin Caga,SBD,R-C,93,Raw,USMA,NY,89.6,185,205,207.5,207.5,130,137.5,-145,137.5,247.5,-272.5,-272.5,247.5,592.5,1996
24,M,Benjamin Tribelli,SBD,R-C,93,Raw,UMass,RI,88.8,-215,215,-227.5,215.0,145,152.5,155,155.0,207.5,215,-222.5,215.0,585,1996
25,M,Eric Du,SBD,R-C,93,Raw,UCLA,CA,93,192.5,207.5,215,215.0,125,-135,135,135.0,207.5,230,-235,230.0,580,1992
26,M,Derrick Russo,SBD,R-C,93,Raw,URI,CT,90.8,175,187.5,192.5,192.5,130,-140,-140,130.0,225,240,250,250.0,572.5,1994
27,M,Brendan Baugher,SBD,R-C,93,Raw,OSU,OH,87.4,162.5,170,177.5,177.5,137.5,142.5,147.5,147.5,220,232.5,242.5,242.5,567.5,1995
28,M,Sam Laus,SBD,R-C,93,Raw,OSU,OH,87.6,172.5,187.5,192.5,192.5,132.5,142.5,-145,142.5,207.5,222.5,230,230.0,565,1994
29,M,Connor O'Hanlon,SBD,R-C,93,Raw,PSU,PA,91.6,192.5,202.5,-212.5,202.5,135,140,145,145.0,197.5,212.5,-227.5,212.5,560,1996
30,M,Joshua Doran,SBD,R-C,93,Raw,PSU,PA,91.2,165,175,185,185.0,122.5,130,-135,130.0,215,230,240,240.0,555,1993
31,M,Matt Golden,SBD,R-C,93,Raw,URI,MA,85.6,165,175,-185,175.0,137.5,142.5,-150,142.5,200,222.5,235,235.0,552.5,1996
32,M,Zach Myles,SBD,R-C,93,Raw,OSU,OH,90.4,152.5,-157.5,160,160.0,112.5,120,-125,120.0,220,235,250,250.0,530,1995
33,M,Erik Manukyan,SBD,R-C,93,Raw,UCLA,CA,92,-200,200,-207.5,200.0,125,-137.5,-137.5,125.0,205,-215,-215,205.0,530,1994
34,M,Christopher Hurst,SBD,R-C,93,Raw,UH,TX,89,180,-187.5,-187.5,180.0,125,127.5,132.5,132.5,195,207.5,-212.5,207.5,520,1991
35,M,Joseph Abdin,SBD,R-C,93,Raw,FIU,FL,87.3,135,145,152.5,152.5,140,150,-160,150.0,157.5,177.5,190,190.0,492.5,1997
36,M,Peter To,SBD,R-C,93,Raw,URI,RI,92.2,155,-165,165,165.0,-120,-120,122.5,122.5,185,195,-200,195.0,482.5,1994
37,M,Kaleb Huckeba,SBD,R-C,93,Raw,LSU,LA,93,140,147.5,152.5,152.5,102.5,107.5,-112.5,107.5,185,197.5,-207.5,197.5,457.5,1995
38,M,Jungbin Choi,SBD,R-C,93,Raw,DART,NH,90.7,-150,150,-167.5,150.0,-105,107.5,-115,107.5,180,187.5,195,195.0,452.5,1994
39,M,Bradly Sodam,SBD,R-C,93,Raw,MCKU,IL,87.2,-92.5,92.5,,92.5,125,132.5,-137.5,132.5,,,,,225,1996
DQ,M,Jason Ellis,SBD,R-C,93,Raw,FCGU,FL,86,-225,-225,-225,,132.5,140,,140.0,235,247.5,-255,247.5,,1995
DQ,M,Ariel Garcia,SBD,R-C,93,Raw,UW-Tac,WA,91.3,-157.5,-157.5,-157.5,,110,120,-130,120.0,192.5,197.5,200,200.0,,1996
DQ,M,Max Grable,SBD,R-C,93,Raw,UMD,MD,92.4,210,220,227.5,227.5,125,132.5,137.5,137.5,-240,-240,,,,1995
1,M,Morgan Willcox,SBD,R-C,105,Raw,USMA,NY,101.8,260,272.5,-282.5,272.5,170,175,-180,175.0,272.5,282.5,-292.5,282.5,730,1996
2,M,Justin Byers,SBD,R-C,105,Raw,USMA,NY,98.6,240,250,260,260.0,157.5,165,175,175.0,245,257.5,270,270.0,705,1996
3,M,Jacob Weiss,SBD,R-C,105,Raw,USMA,NY,100.1,237.5,245,255,255.0,175,182.5,-190,182.5,240,247.5,252.5,252.5,690,1995
4,M,Steven Fritsch,SBD,R-C,105,Raw,MCKU,IL,100.5,250,-265,-265,250.0,157.5,165,-170,165.0,262.5,270,-290,270.0,685,1994
5,M,Benjamin Rowles,SBD,R-C,105,Raw,PSU,PA,100.5,225,242.5,257.5,257.5,162.5,170,177.5,177.5,225,247.5,-262.5,247.5,682.5,1996
6,M,Steven Kearney,SBD,R-C,105,Raw,OSU,OH,104.4,242.5,-252.5,252.5,252.5,-162.5,162.5,-165,162.5,250,265,-272.5,265.0,680,1994
7,M,Luke Klimchuk,SBD,R-C,105,Raw,SUNY,NY,102.5,230,235,240,240.0,157.5,167.5,-170,167.5,242.5,255,265,265.0,672.5,1995
8,M,Sean Kirchner,SBD,R-C,105,Raw,USMA,MI,97.7,220,227.5,237.5,237.5,137.5,145,150,150.0,255,265,275,275.0,662.5,1997
9,M,Kevin Hejnas,SBD,R-C,105,Raw,RUT,NJ,96.8,205,217.5,227.5,227.5,127.5,137.5,142.5,142.5,245,262.5,272.5,272.5,642.5,1994
10,M,Anthony Wolf,SBD,R-C,105,Raw,W-Mad,WI,101.2,217.5,227.5,235,235.0,142.5,150,157.5,157.5,230,240,247.5,247.5,640,1995
11,M,Stephen Porada,SBD,R-C,105,Raw,USMA,NY,100,220,230,-240,230.0,140,-147.5,-147.5,140.0,-265,265,-272.5,265.0,635,1997
12,M,Andrew Castillo,SBD,R-C,105,Raw,UMass,MA,103.7,205,-217.5,-222.5,205.0,135,150,-160,150.0,-250,257.5,272.5,272.5,627.5,1991
13,M,Daniel Douglas,SBD,R-C,105,Raw,MCPHS,MA,103,235,-255,-255,235.0,152.5,-162.5,165,165.0,225,-240,,225.0,625,1992
14,M,Matthew Bellantoni,SBD,R-C,105,Raw,CCSU,CT,104.1,215,220,-230,220.0,142.5,150,-155,150.0,235,255,-272.5,255.0,625,1994
15,M,Douglas Pogacnik,SBD,R-C,105,Raw,Pitt,PA,100.6,227.5,237.5,245,245.0,125,130,-135,130.0,237.5,247.5,-257.5,247.5,622.5,1994
16,M,Damian Perrotta,SBD,R-C,105,Raw,URI,RI,104.1,200,215,222.5,222.5,142.5,150,157.5,157.5,225,240,-242.5,240.0,620,1995
17,M,Jack Palladino,SBD,R-C,105,Raw,USMA,CA,94.4,205,212.5,222.5,222.5,137.5,142.5,-145,142.5,235,245,252.5,252.5,617.5,1995
18,M,Daniel Takacs,SBD,R-C,105,Raw,MCKU,IL,100.4,197.5,215,-222.5,215.0,122.5,130,,130.0,215,222.5,252.5,252.5,597.5,1995
19,M,Cooper Lemoine,SBD,R-C,105,Raw,LSU,LA,93.2,192.5,202.5,212.5,212.5,130,137.5,140,140.0,240,-250,-250,240.0,592.5,1995
20,M,Bryan Adames,SBD,R-C,105,Raw,SUNY,NY,102.1,192.5,200,205,205.0,135,145,-152.5,145.0,217.5,230,237.5,237.5,587.5,1994
21,M,Brannon Evans,SBD,R-C,105,Raw,TEMP,PA,102.9,192.5,-220,220,220.0,132.5,145,-150,145.0,212.5,-237.5,-237.5,212.5,577.5,1995
22,M,Daniel Wert,SBD,R-C,105,Raw,URI,MA,98.5,170,182.5,192.5,192.5,125,137.5,-142.5,137.5,215,230,-245,230.0,560,1994
23,M,Blake Shaw,SBD,R-C,105,Raw,LSU,IL,102.7,185,195,205,205.0,117.5,125,130,130.0,192.5,205,215,215.0,550,1996
24,M,Edward Wollack,SBD,R-C,105,Raw,Prin,MD,93.1,142.5,152.5,165,165.0,-125,125,-132.5,125.0,215,232.5,245,245.0,535,1994
25,M,Michael Christensen,SBD,R-C,105,Raw,UDel,MD,97.9,165,175,185,185.0,130,137.5,145,145.0,190,205,-217.5,205.0,535,1995
26,M,Teymur Zulf,SBD,R-C,105,Raw,UMD,MD,101.5,187.5,195,205,205.0,92.5,100,-107.5,100.0,207.5,220,-227.5,220.0,525,1993
27,M,Nicholas Wawrykow,SBD,R-C,105,Raw,Yale,CT,95.9,165,180,-190,180.0,100,110,115,115.0,165,180,-195,180.0,475,1995
DQ,M,William Goode,SBD,R-C,105,Raw,UNT,TX,104,192.5,-210,210,210.0,142.5,-155,-155,142.5,-227.5,-227.5,-227.5,,,1995
1,M,Matt Sohmer,SBD,R-C,120,Raw,SUNY,NY,117,342.5,-365,,342.5,-130,130,137.5,137.5,320,340,345,345.0,825,1993
2,M,Seth Kirchner,SBD,R-C,120,Raw,USMA,NY,111.5,255,265,280,280.0,165,172.5,-180,172.5,265,280,290,290.0,742.5,1995
3,M,Gabriel Lianes,SBD,R-C,120,Raw,FIU,FL,114.1,212.5,-222.5,230,230.0,-150,155,-160,155.0,272.5,287.5,-295,287.5,672.5,1993
4,M,Alex Burgess,SBD,R-C,120,Raw,MUO,OH,108.8,215,232.5,240,240.0,142.5,150,155,155.0,220,237.5,-245,237.5,632.5,1994
5,M,Haakon Borstad,SBD,R-C,120,Raw,OSU,OH,118.4,202.5,215,220,220.0,127.5,-132.5,132.5,132.5,255,270,280,280.0,632.5,1995
6,M,Ryan Hughes,SBD,R-C,120,Raw,LA Tech,TX,115.8,205,217.5,-225,217.5,145,-152.5,152.5,152.5,245,260,-265,260.0,630,1997
7,M,Kaleb Tessema,SBD,R-C,120,Raw,UDel,MD,110.9,195,207.5,217.5,217.5,155,-165,165,165.0,215,232.5,-247.5,232.5,615,1994
8,M,David Lee,SBD,R-C,120,Raw,RUT,NJ,105.3,215,225,-230,225.0,130,-135,135,135.0,220,232.5,242.5,242.5,602.5,1996
9,M,Josh De Leon,SBD,R-C,120,Raw,UH,TX,112.3,185,200,205,205.0,107.5,115,117.5,117.5,247.5,257.5,267.5,267.5,590,1991
10,M,Chris Lato,SBD,R-C,120,Raw,URI,CT,115.6,197.5,-210,215,215.0,140,-150,-150,140.0,220,227.5,235,235.0,590,1996
11,M,Lee Kantowski,SBD,R-C,120,Raw,USMA,NY,109.8,-205,-205,205,205.0,145,152.5,-160,152.5,210,220,230,230.0,587.5,1995
12,M,David Schlieker,SBD,R-C,120,Raw,MCKU,IL,117.5,185,,,185.0,135,-145,-145,135.0,255,257.5,-265,257.5,577.5,1996
13,M,Mackenzie Corbin,SBD,R-C,120,Raw,DART,NH,105.6,187.5,202.5,-210,202.5,130,137.5,-142.5,137.5,232.5,-250,-250,232.5,572.5,1995
14,M,Gabriel Gutierrez,SBD,R-C,120,Raw,UH,TX,107.6,-200,-200,200,200.0,120,130,-137.5,130.0,220,225,230,230.0,560,1993
15,M,Joe Ragan,SBD,R-C,120,Raw,OSU,OH,106.1,192.5,205,-215,205.0,115,120,-125,120.0,207.5,217.5,227.5,227.5,552.5,1991
16,M,Matthew McDermitt,SBD,R-C,120,Raw,UDel,DE,109.1,167.5,177.5,187.5,187.5,110,117.5,122.5,122.5,210,225,237.5,237.5,547.5,1990
1,M,Andrew Sellers,SBD,R-C,120+,Raw,VSU,GA,147.8,-250,250,265,265.0,165,177.5,182.5,182.5,-285,285,300,300.0,747.5,1994
2,M,Michael Pietrowski,SBD,R-C,120+,Raw,TEMP,PA,157.2,272.5,-295,295,295.0,165,175,185,185.0,225,250,-272.5,250.0,730,1994
3,M,Darryl Brooks,SBD,R-C,120+,Raw,URI,RI,135.8,232.5,245,-260,245.0,142.5,-152.5,-160,142.5,247.5,260,-272.5,260.0,647.5,1995
4,M,Steve Carabitses,SBD,R-C,120+,Raw,URI,MA,141.9,215,-227.5,227.5,227.5,-117.5,120,-130,120.0,-200,-200,200,200.0,547.5,1997
5,M,Emmanuel Lokolo,SBD,R-C,120+,Raw,FIU,FL,156.2,-190,192.5,222.5,222.5,-122.5,-125,125,125.0,185,-205,-205,185.0,532.5,1991
1,M,Kane Garcia,SBD,R-GL,59,Raw,MCKU,IL,58.2,-170,170,180,180.0,-105,105,-117.5,105.0,220,-235,-235,220.0,505,1996
1,F,Lia Ranalli,SBD,C,43,Single-ply,PSU,PA,42.6,102.5,-112.5,112.5,112.5,45,50,-52.5,50.0,82.5,87.5,92.5,92.5,255,1994
1,F,Rosio Berumen,SBD,C,47,Single-ply,UTSA,TX,46.3,112.5,120,125,125.0,52.5,-57.5,-60,52.5,137.5,142.5,145,145.0,322.5,1997
2,F,Kyra Rodriguez,SBD,C,47,Single-ply,TAMU,TX,45.6,115,125,-132.5,125.0,52.5,57.5,-62.5,57.5,115,127.5,137.5,137.5,320,1997
3,F,Diane Chau,SBD,C,47,Single-ply,UT,TX,46.4,117.5,-125,-125,117.5,50,55,60,60.0,115,122.5,-135,122.5,300,1996
4,F,Jenica Flores,SBD,C,47,Single-ply,SHSU,TX,45.9,105,-115,115,115.0,42.5,47.5,50,50.0,117.5,-125,-125,117.5,282.5,1997
5,F,Yazmin Trujillo,SBD,C,47,Single-ply,UHD,TX,46.2,102.5,-107.5,107.5,107.5,57.5,-60,-60,57.5,102.5,107.5,115,115.0,280,1995
6,F,Emily Rodriguez,SBD,C,47,Single-ply,LA Tech,LA,46.1,107.5,-115,-115,107.5,42.5,50,-52.5,50.0,97.5,105,115,115.0,272.5,1997
7,F,Clarrissa Johnson,SBD,C,47,Single-ply,LA Tech,LA,46.6,105,-112.5,-112.5,105.0,47.5,52.5,-55,52.5,95,-102.5,107.5,107.5,265,1994
DQ,F,Sarah Cruz-Ortiz,SBD,C,47,Single-ply,PSU,PA,45.9,-115,-115,-115,,62.5,-65,,62.5,122.5,127.5,132.5,132.5,,1994
1,F,Gabrielle Hurley,SBD,C,52,Single-ply,UT,TX,50.6,140,152.5,160,160.0,75,80,85,85.0,132.5,-145,-145,132.5,377.5,1994
2,F,Andie Hernandez,SBD,C,52,Single-ply,UT,TX,51.1,-137.5,137.5,142.5,142.5,-82.5,82.5,85,85.0,130,135,137.5,137.5,365,1997
3,F,Alyson Galanga,SBD,C,52,Single-ply,UT,TX,51.9,122.5,130,-135,130.0,52.5,-62.5,65,65.0,142.5,152.5,167.5,167.5,362.5,1997
4,F,Kaylynn Beltran,SBD,C,52,Single-ply,TAMU,TX,50.6,130,142.5,-147.5,142.5,80,82.5,85,85.0,125,132.5,-135,132.5,360,1996
5,F,Jamie Broussard,SBD,C,52,Single-ply,ULL,LA,51.1,105,112.5,117.5,117.5,60,67.5,-72.5,67.5,102.5,110,120,120.0,305,1997
6,F,Casey Landry,SBD,C,52,Single-ply,NU,MA,51.6,115,122.5,-127.5,122.5,50,55,-57.5,55.0,115,122.5,-130,122.5,300,1993
7,F,Lena Liu,SBD,C,52,Single-ply,UT,TX,50,100,110,117.5,117.5,42.5,-47.5,-47.5,42.5,110,125,137.5,137.5,297.5,1996
8,F,Savannah Gray,SBD,C,52,Single-ply,LSU,LA,51.3,107.5,-115,115,115.0,50,55,57.5,57.5,110,117.5,-127.5,117.5,290,1995
9,F,Nicole Robichaux,SBD,C,52,Single-ply,ULL,LA,51.4,-97.5,97.5,-102.5,97.5,57.5,62.5,67.5,67.5,100,107.5,-115,107.5,272.5,1996
10,F,Salena Chiep,SBD,C,52,Single-ply,VMI,VA,50.4,90,100,105,105.0,45,50,-55,50.0,102.5,115,-122.5,115.0,270,1994
11,F,Moriah Moore,SBD,C,52,Single-ply,SHSU,TX,51.1,67.5,77.5,-82.5,77.5,40,45,47.5,47.5,95,105,110,110.0,235,1997
DQ,F,Yessi Altamirano,SBD,C,52,Single-ply,UT,TX,47.7,-122.5,,,,,,,,,,,,,1996
1,F,Kimmy Johnson,SBD,C,57,Single-ply,W-GB,WI,55.8,165,175,185,185.0,-107.5,-107.5,107.5,107.5,162.5,172.5,-182.5,172.5,465,1994
2,F,Jay'sun Moore,SBD,C,57,Single-ply,UT,TX,55.8,-130,135,-142.5,135.0,85,92.5,-97.5,92.5,155,162.5,-167.5,162.5,390,1996
3,F,Alexandra Ziepke,SBD,C,57,Single-ply,W-EC,WI,56.5,137.5,145,152.5,152.5,77.5,82.5,87.5,87.5,137.5,147.5,-157.5,147.5,387.5,1996
4,F,Caitlyn Buck,SBD,C,57,Single-ply,ASU,TX,56.9,140,-147.5,-147.5,140.0,75,-80,-80,75.0,150,162.5,-175,162.5,377.5,1994
5,F,Heather Wolfenden,SBD,C,57,Single-ply,URI,RI,56,140,147.5,-155,147.5,65,70,72.5,72.5,142.5,150,-165,150.0,370,1995
6,F,Kristina Torres,SBD,C,57,Single-ply,UT,TX,56.5,130,-140,-140,130.0,82.5,87.5,90,90.0,140,-145,145,145.0,365,1993
7,F,Carmen Reiss,SBD,C,57,Single-ply,ULL,LA,55.6,130,135,-140,135.0,77.5,82.5,-85,82.5,127.5,135,-140,135.0,352.5,1996
8,F,Shelby Gray,SBD,C,57,Single-ply,TAMU,TX,56.9,132.5,-142.5,-142.5,132.5,-70,70,-75,70.0,132.5,147.5,-152.5,147.5,350,1996
9,F,Renee Frohnert,SBD,C,57,Single-ply,PSU,PA,56.6,-142.5,142.5,147.5,147.5,70,72.5,75,75.0,117.5,122.5,-127.5,122.5,345,1993
10,F,Keara Hickey,SBD,C,57,Single-ply,PSU,NY,56,130,-135,-135,130.0,60,62.5,-65,62.5,127.5,132.5,-137.5,132.5,325,1994
11,F,Courtney Halsell,SBD,C,57,Single-ply,ULL,LA,56.4,100,105,110,110.0,65,-67.5,67.5,67.5,117.5,-122.5,-122.5,117.5,295,1996
12,F,Megan Kupser,SBD,C,57,Single-ply,FCGU,FL,56.3,120,127.5,,127.5,62.5,-65,,62.5,100,-115,-115,100.0,290,1995
13,F,Charmaine Solis,SBD,C,57,Single-ply,USNA,MD,53.1,107.5,-112.5,115,115.0,47.5,-52.5,55,55.0,105,110,117.5,117.5,287.5,1995
14,F,Cristi Johnson,SBD,C,57,Single-ply,SHSU,TX,55.7,75,90,105,105.0,42.5,50,-55,50.0,105,117.5,122.5,122.5,277.5,1996
15,F,Natalie Carroll,SBD,C,57,Single-ply,VMI,VA,55.7,97.5,-107.5,-107.5,97.5,-57.5,-60,60,60.0,95,107.5,-117.5,107.5,265,1994
DQ,F,Juliana Gamble,SBD,C,57,Single-ply,UTSA,TX,53,-120,-120,-125,,-52.5,-52.5,-52.5,,115,117.5,-127.5,117.5,,1997
DQ,F,Krystyna Fullwood,SBD,C,57,Single-ply,LA Tech,LA,55.6,-107.5,-107.5,-107.5,,45,52.5,-60,52.5,100,115,120,120.0,,1996
DQ,F,Erika Peralta,SBD,C,57,Single-ply,UTSA,TX,55.7,-130,-137.5,-137.5,,-65,65,-70,65.0,107.5,112.5,-117.5,112.5,,1996
1,F,Jordan Green,SBD,C,63,Single-ply,NU,MA,60.3,180,-182.5,-182.5,180.0,110,-115,-115,110.0,167.5,175,-185,175.0,465,1993
2,F,Giovanna Ortega,SBD,C,63,Single-ply,UTSA,TX,61.1,187.5,-195,-195,187.5,97.5,-102.5,102.5,102.5,160,172.5,-185,172.5,462.5,1994
3,F,Sophia Veiras,SBD,C,63,Single-ply,NU,MA,61.9,180,187.5,-192.5,187.5,102.5,-110,-110,102.5,160,170,-180,170.0,460,1991
4,F,Danielle Ross,SBD,C,63,Single-ply,UTSA,TX,62,-165,-165,165,165.0,115,120,-122.5,120.0,142.5,147.5,-160,147.5,432.5,1995
5,F,Alyssa Gaitan,SBD,C,63,Single-ply,ASU,TX,61.6,155,162.5,170,170.0,85,92.5,95,95.0,165,-177.5,-177.5,165.0,430,1995
6,F,Marisa Lara,SBD,C,63,Single-ply,PSU,PA,62.9,-160,170,-175,170.0,92.5,97.5,103.5,103.5,-142.5,152.5,-162.5,152.5,426,1994
7,F,Samantha LaCoe,SBD,C,63,Single-ply,LC,PA,62.5,155,-165,165,165.0,-80,80,-85,80.0,145,160,165,165.0,410,1991
8,F,Gabriella Grant,SBD,C,63,Single-ply,UT,TX,62.3,140,150,-160,150.0,100,-110,-110,100.0,142.5,150,-155,150.0,400,1994
9,F,Jalyn Holt,SBD,C,63,Single-ply,UT,TX,62.5,-160,160,-165,160.0,-70,70,-75,70.0,160,-165,-177.5,160.0,390,1993
10,F,Sara Pelletier,SBD,C,63,Single-ply,PSU,CA,61.2,-160,160,165,165.0,70,-72.5,-72.5,70.0,137.5,142.5,-147.5,142.5,377.5,1994
11,F,Jasmine Ruiz,SBD,C,63,Single-ply,UHD,TX,61.5,-145,145,-155,145.0,87.5,-92.5,-92.5,87.5,125,-140,-140,125.0,357.5,1997
12,F,Abbigail Garza,SBD,C,63,Single-ply,UT,TX,62.3,137.5,-142.5,-142.5,137.5,72.5,77.5,82.5,82.5,125,135,-147.5,135.0,355,1997
13,F,Kaitlyn Mulkey,SBD,C,63,Single-ply,TAMU,TX,60.5,132.5,-137.5,137.5,137.5,65,67.5,-70,67.5,135,140,147.5,147.5,352.5,1995
14,F,Jessie Mouton,SBD,C,63,Single-ply,ULL,LA,60.5,120,125,-127.5,125.0,70,-75,-75,70.0,137.5,-145,-145,137.5,332.5,1993
15,F,Danielle Vasquez,SBD,C,63,Single-ply,SHSU,TX,59.3,110,120,-125,120.0,55,62.5,-67.5,62.5,112.5,122.5,-135,122.5,305,1996
16,F,Amy Reyes,SBD,C,63,Single-ply,TAMU,TX,61.5,-112.5,112.5,-127.5,112.5,60,-67.5,-67.5,60.0,115,122.5,130,130.0,302.5,1995
17,F,Kali Mendez,SBD,C,63,Single-ply,ASU,TX,62.4,102.5,107.5,112.5,112.5,52.5,57.5,62.5,62.5,110,115,125,125.0,300,1996
18,F,Sharmin Mahmud,SBD,C,63,Single-ply,NU,NY,62.5,105,112.5,117.5,117.5,-60,60,62.5,62.5,85,92.5,100,100.0,280,1996
19,F,Virginia Villani,SBD,C,63,Single-ply,VMI,VA,61.8,85,97.5,-122.5,97.5,47.5,-52.5,-55,47.5,107.5,120,-125,120.0,265,1996
20,F,Lyndsay Rathbun,SBD,C,63,Single-ply,PSU,PA,61.8,97.5,102.5,110,110.0,37.5,40,42.5,42.5,92.5,102.5,-112.5,102.5,255,1993
21,F,Rachael McFarland,SBD,C,63,Single-ply,SHSU,TX,62.4,82.5,87.5,-92.5,87.5,47.5,-57.5,-57.5,47.5,95,-102.5,-102.5,95.0,230,1995
DQ,F,Breanna Johnson,SBD,C,63,Single-ply,FCGU,FL,60.8,120,-125,125,125.0,-105,-105,-105,,,,,,,1996
DQ,F,Lydia Chon,SBD,C,63,Single-ply,LSU,LA,61.9,-162.5,-162.5,-162.5,,65,67.5,70,70.0,140,150,-155,150.0,,1996
DQ,F,Destiny Turner,SBD,C,63,Single-ply,TAMU,TX,62.3,120,125,-130,125.0,-50,-55,60,60.0,-135,-135,-135,,,1996
DQ,F,Richelle George,SBD,C,63,Single-ply,ULL,LA,62.4,-122.5,-125,-130,,87.5,95,100,100.0,122.5,-130,-130,122.5,,1994
DQ,F,Abigail Clapp,SBD,C,63,Single-ply,NU,MA,62.5,130,145,-152.5,145.0,-75,-75,-75,,125,132.5,140,140.0,,1997
1,F,Kelsey McCarthy,SBD,C,72,Single-ply,NU,MA,68.3,200,-212.5,217.5,217.5,112.5,120,-125.5,120.0,187.5,195.5,-205.5,195.5,533,1992
2,F,Carley Miller,SBD,C,72,Single-ply,RCTC,MN,71.9,192.5,-202.5,207.5,207.5,-100,100,-105,100.0,185,190,192.5,192.5,500,1996
3,F,Dominique McGaha,SBD,C,72,Single-ply,UT,TX,70.8,177.5,185,190,190.0,90,97.5,105,105.0,-187.5,197.5,-205,197.5,492.5,1994
4,F,Skyler Briggs,SBD,C,72,Single-ply,USNA,MD,69.7,165,170,-172.5,170.0,117.5,122.5,-130,122.5,167.5,175,182.5,182.5,475,1995
5,F,Talia Ramirez,SBD,C,72,Single-ply,SHSU,TX,71.2,187.5,-197.5,197.5,197.5,80,85,-87.5,85.0,172.5,-180,-180,172.5,455,1995
6,F,Hannah Malcomb,SBD,C,72,Single-ply,TAMU,TX,69.9,-180,180,187.5,187.5,92.5,97.5,-102.5,97.5,162.5,-170,-175,162.5,447.5,1992
7,F,Nicole Maalouf,SBD,C,72,Single-ply,NU,MA,71.1,165,-175,-175,165.0,107.5,112.5,117.5,117.5,145,152.5,-160,152.5,435,1994
8,F,Kate Driscoll,SBD,C,72,Single-ply,NU,NJ,71.1,160,170,-180,170.0,87.5,90,-92.5,90.0,142.5,152.5,162.5,162.5,422.5,1994
9,F,Cassandra Czarn,SBD,C,72,Single-ply,URI,RI,71.5,155,165,-170,165.0,110,115,-120,115.0,130,140,-145,140.0,420,1994
10,F,Shelby David,SBD,C,72,Single-ply,ULL,LA,69.7,147.5,152.5,160,160.0,95,100,-102.5,100.0,145,155,-160,155.0,415,1996
11,F,Maria Toledo,SBD,C,72,Single-ply,SHSU,TX,70.9,150,157.5,165,165.0,-82.5,82.5,92.5,92.5,145,152.5,-157.5,152.5,410,1993
12,F,Danielle Burton,SBD,C,72,Single-ply,NU,MA,67.3,155,-160,162.5,162.5,85,-90,-90,85.0,150,157.5,-167.5,157.5,405,1992
13,F,Hana Shuck,SBD,C,72,Single-ply,NU,MA,70.6,-160,160,170,170.0,-82.5,82.5,87.5,87.5,130,140,145,145.0,402.5,1995
14,F,Marissa Gentle,SBD,C,72,Single-ply,PSU,PA,71.5,-157.5,157.5,-165,157.5,95,100,-105,100.0,130,-140,-140,130.0,387.5,1995
15,F,Genesis Frazar,SBD,C,72,Single-ply,TAMU,TX,70,142.5,147.5,150,150.0,-70,70,-75,70.0,142.5,147.5,155,155.0,375,1995
16,F,Catherine Robertson,SBD,C,72,Single-ply,UT,TX,68.7,135,145,157.5,157.5,62.5,70,-82.5,70.0,122.5,135,137.5,137.5,365,1995
17,F,Kiana Majors,SBD,C,72,Single-ply,UT,TX,68.3,122.5,135,140,140.0,57.5,65,70,70.0,140,150,-157.5,150.0,360,1996
18,F,Delaine Rodick,SBD,C,72,Single-ply,LA Tech,LA,69.1,-140,140,-142.5,140.0,-67.5,70,-77.5,70.0,125,-130,-142.5,125.0,335,1997
19,F,Mackenzie Harrmann,SBD,C,72,Single-ply,VMI,VA,70.2,130,-142.5,-142.5,130.0,-80,-80,80,80.0,110,120,125,125.0,335,1994
20,F,Sarah Use,SBD,C,72,Single-ply,ULL,LA,65,120,125,127.5,127.5,77.5,85,-90,85.0,115,-122.5,-122.5,115.0,327.5,1994
21,F,Allison Tran,SBD,C,72,Single-ply,NU,MA,71.2,115,122.5,-127.5,122.5,50,55,-60,55.0,130,140,150,150.0,327.5,1995
22,F,Karnee Berejiklian,SBD,C,72,Single-ply,NU,MA,69.5,112.5,120,-130,120.0,67.5,72.5,-75,72.5,117.5,125,130,130.0,322.5,1996
23,F,Emily Etnyre,SBD,C,72,Single-ply,UT,TX,68.7,102.5,112.5,125,125.0,57.5,62.5,-67.5,62.5,112.5,122.5,132.5,132.5,320,1995
24,F,Caitlyn Casten,SBD,C,72,Single-ply,VMI,FL,69.7,117.5,-132.5,-132.5,117.5,60,-70,-70,60.0,-120,130,-145,130.0,307.5,1996
1,F,Claire McKenzie,SBD,C,84,Single-ply,UT,TX,83,190,202.5,212.5,212.5,120,125,-130,125.0,180,187.5,192.5,192.5,530,1994
2,F,Sarah Davis,SBD,C,84,Single-ply,TAMU,FL,83,-190,190,,190.0,127.5,-135,-135,127.5,187.5,195,-215,195.0,512.5,1995
3,F,Kyndall Foust,SBD,C,84,Single-ply,TAMU,TX,83,195,200,,200.0,102.5,-107.5,107.5,107.5,185,-192.5,-192.5,185.0,492.5,1997
4,F,Dakota Young,SBD,C,84,Single-ply,UTSA,TX,73.6,197.5,-202.5,-202.5,197.5,102.5,107.5,-112.5,107.5,185,-187.5,-187.5,185.0,490,1996
5,F,Zena Esquivel,SBD,C,84,Single-ply,UTSA,TX,82,180,187.5,190,190.0,-102.5,102.5,110,110.0,157.5,162.5,170,170.0,470,1997
6,F,Brittney Barksdale,SBD,C,84,Single-ply,ASU,TX,80.4,-165,165,172.5,172.5,75,82.5,-90,82.5,160,172.5,182.5,182.5,437.5,1996
7,F,Destiny Kliebert,SBD,C,84,Single-ply,ULL,LA,79.6,147.5,155,157.5,157.5,100,105,-110,105.0,155,162.5,165,165.0,427.5,1995
8,F,Ashley Gicas,SBD,C,84,Single-ply,LSU,LA,75.6,150,160,-165,160.0,105,112.5,-120,112.5,132.5,-145,147.5,147.5,420,1995
9,F,Ashley Vasquez,SBD,C,84,Single-ply,SHSU,TX,78.4,140,150,157.5,157.5,80,85,90,90.0,157.5,170,-180,170.0,417.5,1994
10,F,Danielle Kent,SBD,C,84,Single-ply,UTSA,TX,78.4,-160,160,167.5,167.5,80,85,-92.5,85.0,150,157.5,162.5,162.5,415,1996
11,F,Courtney Byrne,SBD,C,84,Single-ply,UT,TX,76.4,142.5,152.5,160,160.0,77.5,-85,87.5,87.5,125,137.5,145,145.0,392.5,1995
12,F,Lisa Li,SBD,C,84,Single-ply,NU,MA,79,140,-150,-150,140.0,72.5,75,-77.5,75.0,137.5,147.5,155,155.0,370,1996
13,F,Magdiel Alvarez,SBD,C,84,Single-ply,UTSA,TX,81.6,165,180,-185,180.0,52.5,-82.5,-82.5,52.5,122.5,130,135,135.0,367.5,1996
14,F,Rhiannon Howard,SBD,C,84,Single-ply,ASU,TX,80.8,132.5,140,150,150.0,60,65,70,70.0,127.5,135,142.5,142.5,362.5,1996
15,F,Emily Fisher,SBD,C,84,Single-ply,LSU,LA,76.2,-135,135,140,140.0,52.5,60,62.5,62.5,140,150,157.5,157.5,360,1995
16,F,Stephanie Abaraca,SBD,C,84,Single-ply,SHSU,TX,81.4,92.5,102.5,112.5,112.5,-55,55,62.5,62.5,92.5,102.5,115,115.0,290,1993
DQ,F,Maeve Bell,SBD,C,84,Single-ply,NU,MA,82.2,-130,-132.5,-132.5,,72.5,77.5,-80,77.5,107.5,117.5,122.5,122.5,,1995
DQ,F,Monet Bland,SBD,C,84,Single-ply,NU,MA,83.4,-230,-230,-230,,102.5,110,-115,110.0,210,220,-227.5,220.0,,1991
1,F,Viviana Flores,SBD,C,84+,Single-ply,TAMU,TX,121.8,250,-262.5,-262.5,250.0,115,127.5,130,130.0,150,165,-182.5,165.0,545,1996
2,F,Jasmine Jones,SBD,C,84+,Single-ply,SHSU,TX,104.4,192.5,202.5,210,210.0,97.5,102.5,-110,102.5,-185,185,195,195.0,507.5,1997
3,F,Drew Rath,SBD,C,84+,Single-ply,SHSU,TX,151.2,175,192.5,195,195.0,105,115,125,125.0,150,160,165,165.0,485,1995
4,F,Binglei Zhou,SBD,C,84+,Single-ply,NU,MA,97.8,170,-182.5,-187.5,170.0,60,90,95,95.0,180,195,-220,195.0,460,1994
5,F,Amber Blankemeyer,SBD,C,84+,Single-ply,UHD,TX,116.2,-180,180,190,190.0,100,-110,-110,100.0,165,-170,-170,165.0,455,1995
6,F,Jessena Luna,SBD,C,84+,Single-ply,TAMU,TX,101.4,-142.5,147.5,155,155.0,92.5,97.5,102.5,102.5,-142.5,142.5,150,150.0,407.5,1997
7,F,Alexandra Howard,SBD,C,84+,Single-ply,SHSU,TX,90.2,140,150,160,160.0,55,65,67.5,67.5,150,165,175,175.0,402.5,1997
8,F,Cassandra Soto,SBD,C,84+,Single-ply,SHSU,TX,109.4,142.5,150,-157.5,150.0,92.5,97.5,-100,97.5,142.5,155,-162.5,155.0,402.5,1997
DQ,F,Moriah Buckwalter,SBD,C,84+,Single-ply,NU,MA,97,-175,175,185,185.0,-100,-100,-100,,130,140,-155,140.0,,1995
DQ,F,Jaelynn Clark,SBD,C,84+,Single-ply,UTSA,TX,114,-235,-235,-240,,77.5,-82.5,,77.5,185,-187.5,-187.5,185.0,,1996
1,F,Brittany Basco,SBD,R-C,43,Raw,LSU,LA,42.4,62.5,-70,-70,62.5,40,45,-47.5,45.0,100,107.5,112.5,112.5,220,1995
2,F,Lia Ranalli,SBD,R-C,43,Raw,PSU,PA,42.6,67.5,75,-80,75.0,37.5,40,42.5,42.5,90,97.5,102.5,102.5,220,1994
3,F,Sandra Tran,SBD,R-C,43,Raw,MSUD,CO,38.8,77.5,-82.5,-82.5,77.5,32.5,35,37.5,37.5,97.5,-100,-100,97.5,212.5,1995
1,F,Nicole Yu,SBD,R-C,47,Raw,RUT,NJ,47,105,110,-112.5,110.0,42.5,47.5,-50,47.5,-130,-132.5,132.5,132.5,290,1994
2,F,Emily Ho,SBD,R-C,47,Raw,RUT,NJ,47,97.5,105,110,110.0,47.5,50,52.5,52.5,107.5,112.5,-120,112.5,275,1995
3,F,Caroline Lasala,SBD,R-C,47,Raw,LSU,LA,45.6,37.5,42.5,47.5,47.5,27.5,32.5,35,35.0,67.5,75,80,80.0,162.5,1996
1,F,Ashley Will,SBD,R-C,52,Raw,BU,MA,51.8,102.5,107.5,112.5,112.5,45,50,52.5,52.5,112.5,117.5,122.5,122.5,287.5,1994
2,F,Contessa Lai,SBD,R-C,52,Raw,RUT,NJ,52,90,95,-102.5,95.0,-47.5,52.5,55,55.0,127.5,137.5,-142.5,137.5,287.5,1994
3,F,Kimberly Acosta,SBD,R-C,52,Raw,FIU,FL,51.2,85,90,95,95.0,50,-55,-55,50.0,115,122.5,132.5,132.5,277.5,1993
4,F,Taylor Ulery,SBD,R-C,52,Raw,Pitt,PA,51.8,92.5,102.5,-107.5,102.5,55,-60,60,60.0,87.5,102.5,110,110.0,272.5,1994
5,F,Jessica Solis,SBD,R-C,52,Raw,UH,TX,51.4,77.5,-82.5,82.5,82.5,45,50,52.5,52.5,92.5,100,105,105.0,240,1993
6,F,Casey Landry,SBD,R-C,52,Raw,NU,MA,51.8,80,-87.5,-95,80.0,40,42.5,45,45.0,107.5,-110,-117.5,107.5,232.5,1993
7,F,Alaine Johnston,SBD,R-C,52,Raw,OSU,OH,52,-65,65,-70,65.0,32.5,-35,-35,32.5,70,77.5,-80,77.5,175,1997
1,F,Emily Liebert,SBD,R-C,57,Raw,NU,MA,55.5,125,130,137.5,137.5,82.5,87.5,-91,87.5,130,140,145.5,145.5,370.5,1992
2,F,Mary Clark,SBD,R-C,57,Raw,UCLA,CA,56,102.5,105,110,110.0,67.5,72.5,-75,72.5,130,140,145,145.0,327.5,1994
3,F,Maria Blazek,SBD,R-C,57,Raw,OSU,OH,55.9,110,117.5,-125,117.5,65,67.5,70,70.0,122.5,127.5,137.5,137.5,325,1993
4,F,Shaina Coss,SBD,R-C,57,Raw,USMA,NY,56.3,112.5,-115,115,115.0,70,72.5,75,75.0,125,-130,130,130.0,320,1991
5,F,Bianca Thomas,SBD,R-C,57,Raw,WSU,MA,57,92.5,102.5,110,110.0,52.5,60,-67.5,60.0,110,122.5,137.5,137.5,307.5,1995
6,F,Rui Tanimura,SBD,R-C,57,Raw,Pitt,MA,55.7,102.5,115,-117.5,115.0,47.5,50,-52.5,50.0,120,125,-132.5,125.0,290,1996
7,F,Briannah Plasse,SBD,R-C,57,Raw,URI,RI,54.6,-85,90,92.5,92.5,47.5,52.5,55,55.0,125,137.5,-142.5,137.5,285,1997
8,F,Jana Powars,SBD,R-C,57,Raw,PSU,PA,55.7,87.5,92.5,97.5,97.5,52.5,55,57.5,57.5,112.5,-125,-125,112.5,267.5,1994
9,F,Angelica Garcia,SBD,R-C,57,Raw,PSU,CA,57,85,92.5,-97.5,92.5,50,52.5,55,55.0,115,-125,-125,115.0,262.5,1995
10,F,Kaitlyn Fratus,SBD,R-C,57,Raw,URI,RI,56.6,-90,95,-102.5,95.0,40,45,47.5,47.5,107.5,115,-117.5,115.0,257.5,1993
11,F,Emireth Gonzalez,SBD,R-C,57,Raw,RUT,NJ,53.9,-85,92.5,-97.5,92.5,47.5,50,52.5,52.5,95,100,105,105.0,250,1994
12,F,Jennifer Ramirez,SBD,R-C,57,Raw,UTSA,TX,56.4,-75,75,85,85.0,37.5,45,-47.5,45.0,102.5,112.5,117.5,117.5,247.5,1997
13,F,Janine Schuette,SBD,R-C,57,Raw,OSU,OH,56.3,80,-87.5,-87.5,80.0,45,47.5,50,50.0,105,115,-117.5,115.0,245,1969
14,F,Capri Vita,SBD,R-C,57,Raw,MCKU,IL,56.5,-80,80,85,85.0,37.5,40,-45,40.0,105,115,-122.5,115.0,240,1996
15,F,Frances McCurry,SBD,R-C,57,Raw,USMA,NY,55.4,67.5,-72.5,75,75.0,47.5,-50,-50,47.5,-82.5,85,-95,85.0,207.5,1996
16,F,Nicole Moise,SBD,R-C,57,Raw,LSU,LA,56.2,-77.5,77.5,-85,77.5,40,45,-47.5,45.0,-80,80,-87.5,80.0,202.5,1996
17,F,Melissa Ho,SBD,R-C,57,Raw,NU,MA,56.4,70,72.5,75,75.0,37.5,42.5,-45,42.5,75,82.5,-95,82.5,200,1994
DQ,F,Kerry Stevens,SBD,R-C,57,Raw,OSU,OH,53.8,-77.5,-77.5,-77.5,,45,47.5,-52.5,47.5,102.5,-107.5,-110,102.5,,1997
DQ,F,Maily Ly,SBD,R-C,57,Raw,UW-Tac,WA,55.7,-65,-72.5,-72.5,,25,30,-32.5,30.0,70,80,92.5,92.5,,1995
1,F,Jenny Tu,SBD,R-C,63,Raw,UCB,CA,62.5,147.5,155,-160,155.0,80,85,-90,85.0,152.5,-157.5,157.5,157.5,397.5,1991
2,F,Leandria Ates,SBD,R-C,63,Raw,FIU,FL,62.6,112.5,120,130,130.0,67.5,-75,75,75.0,155,165,-177.5,165.0,370,1993
3,F,Sophia Veiras,SBD,R-C,63,Raw,NU,MA,62.2,130,137.5,-147.5,137.5,65,70,-75,70.0,140,-147.5,147.5,147.5,355,1991
4,F,Elaine Perreault,SBD,R-C,63,Raw,UA-H,AL,61.8,122.5,132.5,-137.5,132.5,60,62.5,65,65.0,137.5,145,152.5,152.5,350,1992
5,F,Alexandra Pong,SBD,R-C,63,Raw,Pitt,PA,62.3,102.5,105,112.5,112.5,62.5,67.5,70,70.0,130,142.5,-147.5,142.5,325,1996
6,F,Helen Ramsay,SBD,R-C,63,Raw,NU,MA,63,117.5,125,130,130.0,60,65,-67.5,65.0,115,125,-137.5,125.0,320,1993
7,F,Hope McAfee,SBD,R-C,63,Raw,UNT,TX,61.6,115,130,-137.5,130.0,-52.5,52.5,-60,52.5,125,-140,-140,125.0,307.5,1995
8,F,Natalia Cabanillas,SBD,R-C,63,Raw,FIU,FL,57.9,100,-112.5,-112.5,100.0,-55,57.5,60,60.0,112.5,137.5,145,145.0,305,1991
9,F,Nicolle Tamparong,SBD,R-C,63,Raw,UH,TX,61.4,-95,95,105,105.0,45,50,-55,50.0,-135,135,142.5,142.5,297.5,1991
10,F,Amanda Canellas,SBD,R-C,63,Raw,FIU,FL,62.1,87.5,92.5,-97.5,92.5,-70,72.5,-77.5,72.5,120,122.5,125,125.0,290,1994
11,F,Alexis Gray,SBD,R-C,63,Raw,LA Tech,TX,62,75,90,100,100.0,42.5,55,-65,55.0,95,102.5,115,115.0,270,1995
12,F,Neale Snyder,SBD,R-C,63,Raw,OSU,OH,63,80,82.5,87.5,87.5,52.5,57.5,60,60.0,112.5,117.5,120,120.0,267.5,1994
13,F,Nicole Barros,SBD,R-C,63,Raw,PSU,NY,59.6,82.5,90,95,95.0,47.5,50,-52.5,50.0,107.5,112.5,117.5,117.5,262.5,1995
14,F,Aislinn Curry,SBD,R-C,63,Raw,URI,RI,59,97.5,102.5,-110,102.5,42.5,-45,45,45.0,110,-120,-120,110.0,257.5,1997
15,F,Annette Yoon,SBD,R-C,63,Raw,USMA,NY,61.6,70,82.5,-92.5,82.5,55,62.5,65,65.0,-85,90,105,105.0,252.5,1996
16,F,Maddasyn Manfull,SBD,R-C,63,Raw,UMD,WV,61.4,82.5,-87.5,92.5,92.5,50,55,-60,55.0,87.5,95,102.5,102.5,250,1994
17,F,Alexandra Mackenzie,SBD,R-C,63,Raw,URI,RI,62.2,72.5,80,-82.5,80.0,45,47.5,50,50.0,92.5,100,107.5,107.5,237.5,1996
18,F,Kathryn Moser,SBD,R-C,63,Raw,Cedar,OH,62.2,-70,75,82.5,82.5,37.5,42.5,-47.5,42.5,85,92.5,100,100.0,225,1995
19,F,Brianna Schneider,SBD,R-C,63,Raw,OSU,OH,61.9,70,-75,-80,70.0,40,42.5,45,45.0,87.5,97.5,105,105.0,220,1995
20,F,Kelly Wetmore,SBD,R-C,63,Raw,URI,CT,62.8,70,75,80,80.0,37.5,40,-45,40.0,82.5,92.5,100,100.0,220,1996
1,F,Diana Hernandez-Avalos,SBD,R-C,72,Raw,Hum St,CA,72,167.5,175,180,180.0,82.5,87.5,90,90.0,167.5,175,-180,175.0,445,1994
2,F,Kelsey McCarthy,SBD,R-C,72,Raw,NU,MA,68.4,130,142.5,-152.5,142.5,65,70,75,75.0,150,-165,172.5,172.5,390,1992
3,F,Hannah Kleman,SBD,R-C,72,Raw,OSU,OH,67.9,-122.5,122.5,127.5,127.5,77.5,80,-82.5,80.0,167.5,177.5,-182.5,177.5,385,1994
4,F,Lindsey Raker,SBD,R-C,72,Raw,MCKU,IN,71.3,127.5,-132.5,-132.5,127.5,77.5,-82.5,-82.5,77.5,-167.5,-177.5,177.5,177.5,382.5,1995
5,F,Camille Hamilton,SBD,R-C,72,Raw,LSU,TX,70.4,127.5,137.5,142.5,142.5,55,62.5,-65,62.5,140,152.5,160,160.0,365,1997
6,F,Camiesha Jackson,SBD,R-C,72,Raw,USMA,NY,68.1,105,112.5,122.5,122.5,62.5,67.5,75,75.0,130,-150,165,165.0,362.5,1994
7,F,Meghan Bowling,SBD,R-C,72,Raw,LA Tech,TX,71,-125,-125,125,125.0,72.5,80,85,85.0,130,140,-150,140.0,350,1997
8,F,Jessica Moore,SBD,R-C,72,Raw,UMD,MD,69.3,112.5,122.5,-130,122.5,67.5,70,72.5,72.5,132.5,142.5,150,150.0,345,1997
9,F,Maranda Ratcliff,SBD,R-C,72,Raw,USNA,MD,72,-115,115,-122.5,115.0,77.5,-82.5,-82.5,77.5,145,152.5,-160,152.5,345,1995
10,F,Emily Chang,SBD,R-C,72,Raw,Prin,MA,64,120,-130,130,130.0,62.5,65,-67.5,65.0,142.5,147.5,-152.5,147.5,342.5,1994
11,F,Katie Salerni,SBD,R-C,72,Raw,USNA,MD,71.2,110,-117.5,-122.5,110.0,-75,77.5,-85,77.5,132.5,140,147.5,147.5,335,1996
12,F,Mackenzie Garner,SBD,R-C,72,Raw,USMA,NY,69.2,100,107.5,120,120.0,62.5,70,80,80.0,105,117.5,132.5,132.5,332.5,1996
13,F,Sydney Shade,SBD,R-C,72,Raw,UMD,PA,68.2,112.5,117.5,125,125.0,65,67.5,70,70.0,117.5,125,132.5,132.5,327.5,1996
14,F,Emily Tumpa,SBD,R-C,72,Raw,Pitt,PA,70.6,105,110,-117.5,110.0,-70,70,75,75.0,127.5,135,140,140.0,325,1995
15,F,Alyssa Leder,SBD,R-C,72,Raw,LA Tech,LA,71.1,100,107.5,115,115.0,55,65,72.5,72.5,105,122.5,135,135.0,322.5,1993
16,F,Jannifer Ho,SBD,R-C,72,Raw,BU,MA,65.6,102.5,110,-115,110.0,60,67.5,-70,67.5,125,137.5,-140,137.5,315,1994
17,F,Melissa Letellier,SBD,R-C,72,Raw,FIU,FL,72,125,130,-135,130.0,47.5,52.5,57.5,57.5,115,122.5,-127.5,122.5,310,1993
18,F,Kelli Hingerton,SBD,R-C,72,Raw,URI,NY,65.1,-100,-100,100,100.0,55,57.5,-60,57.5,137.5,150,-160,150.0,307.5,1994
19,F,Natasha Bitar,SBD,R-C,72,Raw,UMass,MA,66.4,100,-105,105,105.0,60,65,-67.5,65.0,112.5,122.5,135,135.0,305,1996
20,F,Blaise Paulo,SBD,R-C,72,Raw,USMA,NY,69.7,100,105,110,110.0,62.5,65,67.5,67.5,107.5,117.5,127.5,127.5,305,1996
21,F,Allison McPherson,SBD,R-C,72,Raw,WC,RI,70.1,82.5,95,105,105.0,37.5,50,-52.5,50.0,120,132.5,145,145.0,300,1997
22,F,Sarah Gourley,SBD,R-C,72,Raw,PSU,PA,71.7,105,110,-115,110.0,47.5,50,52.5,52.5,122.5,132.5,137.5,137.5,300,1996
23,F,Keilani-Lyn Rudderham,SBD,R-C,72,Raw,URI,RI,67.4,97.5,-102.5,-105,97.5,47.5,50,-52.5,50.0,135,150,-160,150.0,297.5,1994
24,F,Corbin Mauro,SBD,R-C,72,Raw,OSU,OH,71.1,90,97.5,102.5,102.5,55,57.5,-62.5,57.5,112.5,120,125,125.0,285,1994
25,F,Stephanie Kung,SBD,R-C,72,Raw,UH,TX,70.3,80,85,95,95.0,45,50,52.5,52.5,117.5,-130,130,130.0,277.5,1994
26,F,Casey Baron,SBD,R-C,72,Raw,URI,MA,65.1,102.5,107.5,-112.5,107.5,47.5,52.5,-55,52.5,115,-125,-125,115.0,275,1997
27,F,Lindsey Shaw,SBD,R-C,72,Raw,OSU,OH,71.6,90,100,-105,100.0,50,52.5,-57.5,52.5,105,112.5,122.5,122.5,275,1993
28,F,Marisa Lightenberg,SBD,R-C,72,Raw,URI,NJ,66.2,92.5,100,-105,100.0,57.5,62.5,-67.5,62.5,97.5,110,-120,110.0,272.5,1996
29,F,Miranda Garcia,SBD,R-C,72,Raw,UTSA,TX,63.6,95,102.5,105,105.0,-40,40,-55,40.0,100,112.5,120,120.0,265,1997
30,F,Coralie Phanord,SBD,R-C,72,Raw,DART,NH,70.2,-87.5,87.5,95,95.0,42.5,45,47.5,47.5,95,107.5,115,115.0,257.5,1994
31,F,Celeste Taniguchi,SBD,R-C,72,Raw,USMA,NY,65.5,70,72.5,77.5,77.5,50,52.5,55,55.0,107.5,112.5,120,120.0,252.5,1996
32,F,Jessica Johnson,SBD,R-C,72,Raw,UTSA,TX,70.3,72.5,80,85,85.0,45,50,-55,50.0,95,102.5,110,110.0,245,1997
33,F,Antonia Balboni,SBD,R-C,72,Raw,URI,CT,69.8,85,-90,92.5,92.5,35,40,-45,40.0,85,92.5,110,110.0,242.5,1996
34,F,Shannon Jacob,SBD,R-C,72,Raw,PSU,PA,69.8,75,80,85,85.0,52.5,55,-57.5,55.0,90,95,100,100.0,240,1997
35,F,Marissa Reuther,SBD,R-C,72,Raw,PSU,PA,66.4,72.5,80,-87.5,80.0,40,42.5,45,45.0,95,102.5,110,110.0,235,1996
36,F,Mary Catherine Innace,SBD,R-C,72,Raw,RUT,NJ,70,25,,,25.0,80,-85,-85,80.0,25,,,25.0,130,1995
DQ,F,Danielle Peck,SBD,R-C,72,Raw,USMA,NY,65.8,97.5,-102.5,-102.5,97.5,-70,-70,-70,,115,122.5,127.5,127.5,,1995
1,F,Monet Bland,SBD,R-C,84,Raw,NU,MA,82.8,150,-160,-160,150.0,80,-85,85,85.0,185,-195,-195,185.0,420,1991
2,F,Alexandria Benboe,SBD,R-C,84,Raw,LSU,FL,75.6,107.5,117.5,127.5,127.5,70,80,-85,80.0,175,187.5,-195,187.5,395,1997
3,F,Maria Rojas,SBD,R-C,84,Raw,PSU,PA,75.6,110,117.5,122.5,122.5,72.5,-77.5,-77.5,72.5,142.5,155,162.5,162.5,357.5,1997
4,F,Kelly Yates,SBD,R-C,84,Raw,LSU,LA,80.4,110,120,-125,120.0,60,65,-67.5,65.0,147.5,155,160,160.0,345,1993
5,F,Ashley DeShetler,SBD,R-C,84,Raw,OSU,OH,73,117.5,122.5,127.5,127.5,60,-62.5,-62.5,60.0,142.5,147.5,155,155.0,342.5,1995
6,F,Carla Newman,SBD,R-C,84,Raw,PSU,PA,80.4,107.5,115,122.5,122.5,52.5,55,57.5,57.5,142.5,152.5,157.5,157.5,337.5,1995
7,F,Teagan Schwab,SBD,R-C,84,Raw,MCKU,IL,77,-115,115,122.5,122.5,57.5,62.5,-70,62.5,137.5,150,-160,150.0,335,1996
8,F,Sarah Ferrell,SBD,R-C,84,Raw,UMD,MD,82,102.5,107.5,115,115.0,55,60,65,65.0,140,150,-155,150.0,330,1994
9,F,Allison Neu,SBD,R-C,84,Raw,OSU,OH,74.4,90,100,102.5,102.5,50,-55,-55,50.0,130,140,147.5,147.5,300,1995
10,F,Janelle Haire,SBD,R-C,84,Raw,URI,RI,77.8,97.5,105,-112.5,105.0,45,50,55,55.0,102.5,115,125,125.0,285,1993
11,F,Megan Hower,SBD,R-C,84,Raw,PSU,PA,76.6,87.5,-95,95,95.0,47.5,50,52.5,52.5,115,125,135,135.0,282.5,1996
12,F,Yessica Uribe,SBD,R-C,84,Raw,FIU,FL,72.2,82.5,87.5,92.5,92.5,40,45,-52.5,45.0,105,112.5,117.5,117.5,255,1990
13,F,Casey Carr,SBD,R-C,84,Raw,PSU,PA,78.6,-90,90,95,95.0,47.5,50,-52.5,50.0,97.5,107.5,-117.5,107.5,252.5,1996
14,F,Rachel Hido,SBD,R-C,84,Raw,PSU,PA,78.4,77.5,-85,-87.5,77.5,42.5,45,-47.5,45.0,115,117.5,125,125.0,247.5,1992
15,F,Elizabeth Sledzinski,SBD,R-C,84,Raw,PSU,PA,77.2,85,-90,-90,85.0,47.5,-50,-50,47.5,100,107.5,-117.5,107.5,240,1995
1,F,Binglei Zhou,SBD,R-C,84+,Raw,NU,MA,98,165,-170,175,175.0,60,67.5,-72.5,67.5,180,195,210.5,210.5,453,1994
2,F,Shatara Warner,SBD,R-C,84+,Raw,LSU,LA,139.4,-117.5,117.5,130,130.0,77.5,85,-87.5,85.0,150,165,180,180.0,395,1993
3,F,Anna Gailius,SBD,R-C,84+,Raw,MCKU,IL,96,125,130,137.5,137.5,85,92.5,-95,92.5,152.5,162.5,-172.5,162.5,392.5,1995
4,F,Danielle Lewis,SBD,R-C,84+,Raw,RUT,NJ,111.6,125,130,137.5,137.5,-77.5,-77.5,77.5,77.5,157.5,167.5,-177.5,167.5,382.5,1993
5,F,Raven Nichols,SBD,R-C,84+,Raw,LSU,LA,153.8,145,-155,155,155.0,72.5,77.5,82.5,82.5,130,142.5,-152.5,142.5,380,1996
6,F,Meredith O'Brien,SBD,R-C,84+,Raw,MCKU,IL,107.6,120,127.5,132.5,132.5,50,55,-57.5,55.0,127.5,137.5,-150,137.5,325,1996
7,F,Jennifer Nance,SBD,R-C,84+,Raw,TEMP,PA,84.8,100,107.5,115,115.0,50,55,60,60.0,102.5,117.5,130,130.0,305,1997
8,F,Teiana Bennett,SBD,R-C,84+,Raw,PSU,NY,88,102.5,110,115,115.0,47.5,50,52.5,52.5,112.5,120,125,125.0,292.5,1994
9,F,Judith Jessen,SBD,R-C,84+,Raw,UAA,AK,96,85,90,97.5,97.5,47.5,52.5,57.5,57.5,107.5,115,125,125.0,280,1992
10,F,Georgina Snyder,SBD,R-C,84+,Raw,PSU,PA,103,95,100,-105,100.0,45,47.5,50,50.0,87.5,97.5,105,105.0,255,1996
DQ,M,Collin Larkin,SBD,R-C,83,Raw,URI,CT,78.5,-185,-192.5,-205,,-102.5,-110,-110,,-200,-200,-215,,,1994
DQ,M,Bryson Randall,SBD,R-C,93,Raw,USMA,NY,92.6,-242.5,-255,-262.5,,-150,-165,-170,,-265,-280,-290,,,1994
