Name,Sex,Event,Equipment,Division,BodyweightKg,WeightClassKg,Squat1Kg,Squat2Kg,Squat3Kg,Best3SquatKg,Bench1Kg,Bench2Kg,Bench3Kg,Best3BenchKg,Deadlift1Kg,Deadlift2Kg,Deadlift3Kg,Best3DeadliftKg,TotalKg,Place,AgeClass
Claire Thomson,F,SBD,Raw,S,53.6,57,92.5,100,107.5,107.5,45,52.5,55,55,105,115,122.5,122.5,285,1,23-39
Jaimée-Lee Bowles,F,SBD,Raw,SJ,56.5,57,80,90,92.5,92.5,35,42.5,-47.5,42.5,80,90,100,100,235,2,<=18
Isobelle Grant,F,SBD,Raw,Guest,53.7,57,50,55,-60,55,-35,35,-37.5,35,90,95,102.5,102.5,192.5,G,49-59
Rowan Hendry-Horne,F,SBD,Raw,S,62.4,63,115,120,125,125,-75,75,80,80,130,137.5,142.5,142.5,347.5,1,23-39
Emily Martin,F,SBD,Raw,J,60.5,63,-100,-105,105,105,50,55,-57.5,55,120,130,132.5,132.5,292.5,2,<=23
Hayley Kerr,F,SBD,Raw,S,58.9,63,90,95,100,100,47.5,50,-52.5,50,115,120,125,125,275,3,23-39
Iona Bruce,F,SBD,Raw,S,62.7,63,65,75,80,80,-42.5,42.5,-50,42.5,105,112.5,120,120,242.5,4,23-39
Kara Swankie,F,SBD,Raw,J,70.7,72,120,127.5,130,130,50,55,-60,55,155,162.5,-167.5,162.5,347.5,1,<=23
Katy Conlan,F,SBD,Raw,S,68.7,72,120,125,130,130,45,52.5,57.5,57.5,130,145,-152.5,145,332.5,2,23-39
Shelley Tipling,F,SBD,Raw,S,68.6,72,110,-115,-115,110,65,70,-75,70,110,120,130,130,310,3,23-39
Heather Gardner,F,SBD,Raw,S,69.3,72,100,105,110,110,50,57.5,60,60,130,-135,-135,130,300,4,23-39
Ashley Nicholson,F,SBD,Raw,S,71.6,72,95,105,-115,105,55,62.5,-67.5,62.5,117.5,125,132.5,132.5,300,5,23-39
Iona Paterson,F,SBD,Raw,J,71,72,95,100,105,105,52.5,57.5,62.5,62.5,110,117.5,120,120,287.5,6,<=23
Beth Chinchen,F,SBD,Raw,S,69.1,72,90,95,-100,95,50,55,-60,55,115,122.5,130,130,280,7,23-39
Jen Innes,F,SBD,Raw,S,68.9,72,85,92.5,-97.5,92.5,50,55,-57.5,55,115,122.5,130,130,277.5,8,23-39
Jennifer Underwood,F,SBD,Raw,S,71.1,72,60,65,70,70,40,45,-50,45,80,97.5,107.5,107.5,222.5,9,23-39
Katie Goudie,F,SBD,Raw,S,65.6,72,55,60,65,65,32.5,37.5,42.5,42.5,80,87.5,95,95,202.5,10,23-39
Wendy MacFarlane,F,SBD,Raw,S,82.6,84,-160,160,165,165,75,80,-82.5,80,165,170,175,175,420,1,23-39
Claire Tocher,F,SBD,Raw,S,77.8,84,135,142.5,-150,142.5,72.5,77.5,82.5,82.5,150,160,172.5,172.5,397.5,2,23-39
Sandra Dailidyte,F,SBD,Raw,S,78.9,84,120,130,137.5,137.5,60,62.5,-65,62.5,145,160,170,170,370,3,23-39
Nicola Harcus,F,SBD,Raw,M1,73.1,84,80,95,100,100,55,57.5,-60,57.5,120,130,135,135,292.5,4,39-49
Irene Hallyburton,F,SBD,Raw,M1,77.1,84,-95,95,-105,95,52.5,55,57.5,57.5,110,115,120,120,272.5,5,39-49
Simone Kupisz,F,SBD,Raw,S,86.9,84+,120,130,140,140,75,82.5,92.5,92.5,140,152.5,160,160,392.5,1,23-39
Leah Moir,F,SBD,Raw,S,105.9,84+,100,115,125,125,85,92.5,-100,92.5,130,140,145,145,362.5,2,23-39
Rachael Moir,F,SBD,Raw,S,94.5,84+,100,115,125,125,70,75,80,80,130,140,145,145,350,3,23-39
Lynsey Christie,F,SBD,Raw,S,93.4,84+,127.5,135,-145,135,-57.5,62.5,67.5,67.5,125,130,140,140,342.5,4,23-39
Kim Smyth,F,SBD,Raw,S,113.4,84+,115,120,130,130,-55,57.5,-62.5,57.5,120,135,150,150,337.5,5,23-39
Karen Walton,F,SBD,Raw,M1,90.7,84+,90,-115,-115,90,50,-60,-60,50,,,,,,DQ,39-49
Michael Morris,M,SBD,Raw,S,58.8,59,165,-177.5,-177.5,165,-100,100,107.5,107.5,180,190,-200,190,462.5,1,23-39
Stuart Duncan,M,SBD,Raw,S,65.2,66,165,-175,-185,165,100,110,-120,110,180,200,220,220,495,1,23-39
John Devlin,M,SBD,Raw,S,66,66,140,150,155,155,90,100,105,105,180,190,195,195,455,2,23-39
Marco Fabiani,M,SBD,Raw,S,65.4,66,100,110,125,125,75,82.5,-90,82.5,140,150,160,160,367.5,3,23-39
Benjamin Hemmati,M,SBD,Raw,SJ,65,66,77.5,82.5,87.5,87.5,65,70,75,75,90,100,110,110,272.5,4,<=18
Omar Khan,M,SBD,Raw,J,72.2,74,180,190,-200,190,105,115,117.5,117.5,210,230,240,240,547.5,1,<=23
Bruce Bain,M,SBD,Raw,S,71.6,74,152.5,160,165,165,100,105,110,110,185,195,210,210,485,2,23-39
Steve Martin,M,SBD,Raw,S,67,74,105,115,-125,115,80,85,92.5,92.5,160,170,180,180,387.5,3,23-39
Dean Robertson,M,SBD,Raw,S,79.2,83,205,210,215,215,135,142.5,-145,142.5,235,245,-250,245,602.5,1,23-39
Lawrie Marshall,M,SBD,Raw,S,80.8,83,200,210,-215,210,125,135,-142.5,135,240,255,-267.5,255,600,2,23-39
James Dugdale,M,SBD,Raw,S,82.2,83,177.5,185,197.5,197.5,107.5,115,-120,115,215,230,245,245,557.5,3,23-39
Duncan Keith,M,SBD,Raw,S,81.2,83,190,200,205,205,105,-110,110,110,220,235,-250,235,550,4,23-39
Barry Stephen,M,SBD,Raw,S,82.2,83,170,177.5,-185,177.5,110,115,120,120,200,210,220,220,517.5,5,23-39
Euan Forsyth,M,SBD,Raw,u20,83,83,-180,-190,190,190,117.5,125,-130,125,185,200,-205,200,515,6,u20
Shaun Healy,M,SBD,Raw,J,80.8,83,-160,165,180,180,100,120,-127.5,120,170,180,195,195,495,7,<=23
Jason Gray,M,SBD,Raw,J,80.8,83,150,160,167.5,167.5,90,100,105,105,175,185,192.5,192.5,465,8,<=23
Jamie Chinnery,M,SBD,Raw,S,80.2,83,-130,-130,130,130,95,-105,105,105,190,195,200,200,435,9,23-39
William Coulter,M,SBD,Raw,J,79.8,83,-145,155,-162.5,155,67.5,75,80,80,150,170,180,180,415,10,<=23
William Borthwick,M,SBD,Raw,M4,81,83,-90,-90,90,90,80,85,-90,85,140,145,150,150,325,11,M4
Calum Annand,M,SBD,Raw,S,89.4,93,-212.5,220,232.5,232.5,142.5,152.5,162.5,162.5,230,250,-257.5,250,645,1,23-39
Graeme Lamont,M,SBD,Raw,S,92.2,93,200,210,-215,210,130,137.5,142.5,142.5,240,255,-265,255,607.5,2,23-39
William Brown,M,SBD,Raw,S,88.2,93,190,200,207.5,207.5,120,130,-137.5,130,220,237.5,242.5,242.5,580,3,23-39
Martin Porter,M,SBD,Raw,S,90.2,93,170,185,-190,185,117.5,125,127.5,127.5,240,250,265,265,577.5,4,23-39
Ben Parkes,M,SBD,Raw,S,87.8,93,192.5,200,210,210,110,115,120,120,230,240,-250,240,570,5,23-39
Jodi Mullen,M,SBD,Raw,S,92.4,93,195,205,-215,205,105,110,-115,110,225,242.5,250,250,565,6,23-39
Andrew Heywood,M,SBD,Raw,S,91,93,195,202.5,207.5,207.5,125,130,135,135,200,210,215,215,557.5,7,23-39
Graham Findlay,M,SBD,Raw,S,91.2,93,185,195,-205,195,120,130,132.5,132.5,215,225,230,230,557.5,8,23-39
Frazer Rennie,M,SBD,Raw,S,91.4,93,-170,-180,180,180,130,-145,150,150,180,200,220,220,550,9,23-39
Paul Buchan,M,SBD,Raw,M1,92,93,180,195,-207.5,195,120,125,-127.5,125,230,-237.5,-237.5,230,550,10,39-49
Jack Ferguson,M,SBD,Raw,J,85.3,93,190,197.5,202.5,202.5,-105,-112.5,112.5,112.5,205,217.5,227.5,227.5,542.5,11,<=23
Mark Ritchie,M,SBD,Raw,S,92.2,93,190,200,202.5,202.5,-110,115,117.5,117.5,210,220,222.5,222.5,542.5,12,23-39
Nick Anderson,M,SBD,Raw,S,90.4,93,180,185,-187.5,185,100,-107.5,-107.5,100,210,220,230,230,515,13,23-39
Ryan Cruickshank,M,SBD,Raw,J,87.4,93,130,142.5,150,150,75,82.5,85,85,150,165,180,180,415,14,<=23
James Gerrard,M,SBD,Raw,S,92.2,93,-185,-185,-185,,115,120,127.5,127.5,250,-260,-265,250,,DQ,23-39
Jake Brown,M,SBD,Raw,J,92.2,93,-185,-192.5,-192.5,,147.5,150,-157.5,150,215,-220,-220,215,,DQ,<=23
Kyle Love,M,SBD,Raw,J,88.8,93,-190,-190,-190,,125,-130,-130,125,230,-240,-240,230,,DQ,<=23
Jonathan Wardell,M,SBD,Raw,S,99.4,105,230,245,-255,245,130,140,-145,140,260,280,-290,280,665,1,23-39
John Smith,M,SBD,Raw,S,103.6,105,225,235,-250,235,155,160,167.5,167.5,250,255,260,260,662.5,2,23-39
Tom Barrack,M,SBD,Raw,S,98.4,105,200,215,220,220,120,132.5,137.5,137.5,200,220,240,240,597.5,3,23-39
Reiss McCormick,M,SBD,Raw,S,104,105,210,215,220,220,90,100,110,110,240,250,-255,250,580,4,23-39
Eric Uotila,M,SBD,Raw,J,100,105,170,185,-200,185,130,140,-150,140,220,-230,-230,220,545,5,<=23
Callum Orr,M,SBD,Raw,S,98.6,105,150,157.5,165,165,110,120,130,130,210,225,240,240,535,6,23-39
Marcus Heyer,M,SBD,Raw,J,99.6,105,185,195,205,205,95,-105,105,105,177.5,190,205,205,515,7,<=23
James Bathgate,M,SBD,Raw,S,103.8,105,135,145,152.5,152.5,85,-95,-95,85,150,160,170,170,407.5,8,23-39
Iain Sinclair,M,SBD,Raw,S,106.6,120,180,200,-210,200,80,-105,115,115,200,210,230,230,545,1,23-39
Kierran Leith,M,SBD,Raw,J,133.4,120+,280,300,317.5,317.5,140,150,155,155,255,275,-305,275,747.5,1,<=23
Ryan Knight,M,SBD,Raw,S,129,120+,200,220,-240,220,125,135,-142.5,135,220,230,235,235,590,2,23-39
