Name,Division,Sex,BodyweightKg,WeightClassKg,Squat1Kg,Squat2Kg,Squat3Kg,Best3SquatKg,Bench1Kg,Bench2Kg,Bench3Kg,Best3BenchKg,Deadlift1Kg,Deadlift2Kg,Deadlift3Kg,Best3DeadliftKg,TotalKg,Event,Equipment,Place
Tom Hitchcock-Wyatt,M-BL,M,56.8,59,135,-140,140,140,65,70,-75,70,140,145,150,150,360,SBD,Raw,1
Sean Maloney,M-BL,M,65.8,66,135,145,150,150,92.5,97.5,-100,97.5,175,185,-200,185,432.5,SBD,Raw,1
Cameron Huke,M-BL,M,64.1,66,140,-150,150,150,75,80,-90,80,170,180,-190,180,410,SBD,Raw,2
Thomas Rowell,M-BL,M,82.2,83,200,215,220,220,115,125,130,130,250,-265,-265,250,600,SBD,Raw,1
Dominic Crane,M-BL,M,78.6,83,170,185,200,200,110,120,130,130,200,215,230,230,560,SBD,Raw,2
Oliver Butler,M-BL,M,81.8,83,-180,-180,180,180,115,120,-125,120,200,-215,215,215,515,SBD,Raw,3
James Wilkinson,M-BL,M,80.1,83,175,-177.5,-177.5,175,-120,-120,120,120,205,-210,-210,205,500,SBD,Raw,4
Jacob Gretton,M-BL,M,81.6,83,160,-175,175,175,90,100,-107.5,100,180,195,205,205,480,SBD,Raw,5
Wiktor Maksym,M-BL,M,79.3,83,140,160,165,165,-90,90,100,100,180,200,-210,200,465,SBD,Raw,6
Ali Wilson,M-BL,M,81.8,83,-140,140,-152.5,140,-112.5,112.5,120,120,195,-205,-205,195,455,SBD,Raw,7
Neil Butler,M-BL,M,81.4,83,-150,150,,150,95,-102.5,,95,180,190,-200,190,435,SBD,Raw,8
Alex Whitmore,M-BL,M,91.2,93,200,215,-225,215,140,150,160,160,220,230,250,250,625,SBD,Raw,1
Derek Hussey,M-BL,M,91.5,93,205,220,227.5,227.5,140,150,157.5,157.5,230,240,-247.5,240,625,SBD,Raw,2
Lorenas Mikalajunas,M-BL,M,90.3,93,210,215,-220,215,145,152.5,-160,152.5,220,-225,,220,587.5,SBD,Raw,3
Daniel Willgoss,M-BL,M,91.6,93,190,205,-210,205,130,-140,-140,130,212.5,240,-255,240,575,SBD,Raw,4
Lawrence Rowles,M-BL,M,87.3,93,180,190,195,195,112.5,117.5,122.5,122.5,220,232.5,245,245,562.5,SBD,Raw,5
Jonathan Faasse,M-BL,M,90.5,93,180,190,197.5,197.5,112.5,117.5,122.5,122.5,225,232.5,-240,232.5,552.5,SBD,Raw,6
James Maher,M-BL,M,92.4,93,170,180,-190,180,95,100,105,105,242.5,255,260,260,545,SBD,Raw,7
Thomas Watts,M-BL,M,85,93,140,142.5,150,150,135,140,-142.5,140,170,180,185,185,475,SBD,Raw,8
Tony Wightman,M-BL,M,89,93,135,140,142.5,142.5,87.5,92.5,-95,92.5,172.5,180,185,185,420,SBD,Raw,9
Richard Patman,M-BL,M,94.6,105,215,230,245,245,170,180,187.5,187.5,220,240,-260,240,672.5,SBD,Raw,1
Jared Holmes,M-BL,M,102.4,105,200,210,225,225,150,160,165,165,240,260,-270,260,650,SBD,Raw,2
Stewart Gates,M-BL,M,102.6,105,200,210,220,220,130,140,142.5,142.5,220,230,240,240,602.5,SBD,Raw,3
Stephen McKibben,M-BL,M,103.2,105,185,195,-200,195,120,127.5,130,130,-220,220,-225,220,545,SBD,Raw,4
Richard Griffiths,M-BL,M,103.3,105,160,170,180,180,115,120,-125,120,215,225,230,230,530,SBD,Raw,5
Justin Green,M-BL,M,101.1,105,145,147.5,150,150,110,115,-120,115,200,205,207.5,207.5,472.5,SBD,Raw,6
Rhett Milton,M-BL,M,109.6,120,200,-210,-215,200,150,160,165,165,250,270,280,280,645,SBD,Raw,1
James Mills,M-BL,M,118.4,120,220,230,240,240,140,150,-160,150,220,235,250,250,640,SBD,Raw,2
Ian Finch,M-BL,M,113.1,120,165,170,175,175,105,112.5,117.5,117.5,200,212.5,217.5,217.5,510,SBD,Raw,3
Chris Gladding,M-BL,M,117.5,120,140,150,155,155,115,120,,120,165,175,,175,450,SBD,Raw,4
Christopher Hartwig,M-BL,M,129.7,120+,240,260,272.5,272.5,160,170,177.5,177.5,280,292.5,-300,292.5,742.5,SBD,Raw,1
Sophie Tang,F-BL,F,46.3,47,90,95.5,100,100,-47.5,-47.5,47.5,47.5,100,110,120.5,120.5,268,SBD,Raw,1
Imelda Flanagan,F-BL,F,43.5,47,70,72.5,75,75,37.5,40,-42.5,40,107.5,112.5,-115,112.5,227.5,SBD,Raw,2
Antonietta Moch,F-BL,F,49.6,52,65,70,72.5,72.5,42.5,45,47.5,47.5,100,102.5,107.5,107.5,227.5,SBD,Raw,1
Vanessa Butler,F-BL,F,55.9,57,82.5,-92.5,-92.5,82.5,45,-50,-50,45,100,110,115,115,242.5,SBD,Raw,1
Nina Cambatta,F-BL,F,63,63,110,117.5,120,120,60,65,67.5,67.5,135,145,155,155,342.5,SBD,Raw,1
Faye Jordan,F-BL,F,62.7,63,90,95,-97.5,95,65,70,72.5,72.5,125,132.5,-137.5,132.5,300,SBD,Raw,2
Frankie Rickwood,F-BL,F,59,63,95,102.5,107.5,107.5,50,55,57.5,57.5,110,120,-130,120,285,SBD,Raw,3
Jo Montagu,F-BL,F,61.7,63,85,90,-95,90,50,52.5,-55,52.5,115,120,125,125,267.5,SBD,Raw,4
Christine Hook,F-BL,F,61.5,63,75,-85,85,85,40,-45,45,45,100,110,-120,110,240,SBD,Raw,5
Ghislaine Holland,F-BL,F,59,63,60,70,75,75,40,42.5,45,45,80,90,95,95,215,SBD,Raw,6
Abi Graham,F-BL,F,64.9,72,115,125.5,127.5,127.5,70,75,77.5,77.5,155,165.5,,165.5,370.5,SBD,Raw,1
Heidi Markely,F-BL,F,70.8,72,85,90,95,95,57.5,60,62.5,62.5,120,125,132.5,132.5,290,SBD,Raw,2
Lottie Hall,F-BL,F,70.6,72,100,105,-110,105,45,50,-52.5,50,112.5,122.5,-130,122.5,277.5,SBD,Raw,3
Paula Gentle,F-BL,F,63.1,72,-80,80,-90,80,47.5,52.5,-55,52.5,120,127.5,-130,127.5,260,SBD,Raw,4
Annelise Barnes,F-BL,F,81.7,84,110,115,-120,115,75,80,-82.5,80,120,130,-140,130,325,SBD,Raw,1
Catherine Burroughs,F-BL,F,77.6,84,110,115,120,120,50,55,-57.5,55,130,135,140,140,315,SBD,Raw,2
Pam Henderson,F-BL,F,81.1,84,65,70,80,80,55,57.5,-60,57.5,130,135,142.5,142.5,280,SBD,Raw,3
Laura Mitchell,F-BL,F,81.2,84,90,100,105,105,40,45,50,50,110,115,120,120,275,SBD,Raw,4
Camille Holland,F-BL,F,114.5,84+,150,160,170,170,90,100,-107.5,100,150,170,-200,170,440,SBD,Raw,1
Sarah Marsden,F-BL,F,106,84+,140,-150,-150,140,72.5,80,85,85,125,135,-145,135,360,SBD,Raw,2
